# MagicaVoxel @ Ephtracy

# group
o 

# material
mtllib project.mtl
usemtl palette

# normals
vn -1 0 0
vn 1 0 0
vn 0 0 1
vn 0 0 -1
vn 0 -1 0
vn 0 1 0

# texcoords
vt 0.845703 0.5
vt 0.849609 0.5
vt 0.853516 0.5
vt 0.857422 0.5
vt 0.884766 0.5
vt 0.919922 0.5
vt 0.951172 0.5
vt 0.970703 0.5

# verts
v -3.6 0 3.4
v -3.6 0 0.8
v -3.6 0.2 3.4
v -3.6 0.2 0.8
v -3.2 0 0.2
v -3.2 0 -3.8
v -3.2 0.2 3
v -3.2 0.2 2.8
v -3.2 0.2 2.6
v -3.2 0.2 2.4
v -3.2 0.2 2.2
v -3.2 0.2 2
v -3.2 0.2 1.8
v -3.2 0.2 1.6
v -3.2 0.2 1.2
v -3.2 0.2 1
v -3.2 0.4 3
v -3.2 0.4 2.8
v -3.2 0.4 2.6
v -3.2 0.4 2.4
v -3.2 0.4 2.2
v -3.2 0.4 2
v -3.2 0.4 1.8
v -3.2 0.4 1.6
v -3.2 0.4 1.2
v -3.2 0.4 1
v -3.2 1.2 0.2
v -3.2 1.2 -3.8
v -2.8 0.2 3
v -2.8 0.2 2.8
v -2.8 0.2 2.6
v -2.8 0.2 2.4
v -2.8 0.2 2.2
v -2.8 0.2 2
v -2.8 0.2 1.8
v -2.8 0.2 1.6
v -2.8 0.4 3
v -2.8 0.4 2.8
v -2.8 0.4 2.6
v -2.8 0.4 2.4
v -2.8 0.4 2.2
v -2.8 0.4 2
v -2.8 0.4 1.8
v -2.8 0.4 1.6
v -2.6 0.2 1.2
v -2.6 0.2 1
v -2.6 0.4 1.2
v -2.6 0.4 1
v -2.4 0 0.8
v -2.4 0 0.7
v -2.4 0.1 0.8
v -2.4 0.1 0.7
v -2.4 0.2 3
v -2.4 0.2 2.8
v -2.4 0.2 2.6
v -2.4 0.2 2.4
v -2.4 0.2 2.2
v -2.4 0.2 2
v -2.4 0.2 1.8
v -2.4 0.2 1.6
v -2.4 0.4 3
v -2.4 0.4 2.8
v -2.4 0.4 2.6
v -2.4 0.4 2.4
v -2.4 0.4 2.2
v -2.4 0.4 2
v -2.4 0.4 1.8
v -2.4 0.4 1.6
v -2.3 0 0.7
v -2.3 0 0.6
v -2.3 0.1 0.7
v -2.3 0.1 0.6
v -2.2 0.2 1.2
v -2.2 0.2 1
v -2.2 0.4 1.2
v -2.2 0.4 1
v -2.2 1.8 0.2
v -2.2 1.8 -1
v -2.2 5 0.2
v -2.2 5 -1
v -2 0 0.6
v -2 0 0.5
v -2 0.1 0.6
v -2 0.1 0.5
v -2 0.2 3
v -2 0.2 2.8
v -2 0.2 2.6
v -2 0.2 2.4
v -2 0.2 2.2
v -2 0.2 2
v -2 0.2 1.8
v -2 0.2 1.6
v -2 0.4 3
v -2 0.4 2.8
v -2 0.4 2.6
v -2 0.4 2.4
v -2 0.4 2.2
v -2 0.4 2
v -2 0.4 1.8
v -2 0.4 1.6
v -2 1.8 -1
v -2 1.8 -2.4
v -2 4.8 -1
v -2 4.8 -2.4
v -1.8 0.2 1.2
v -1.8 0.2 1
v -1.8 0.4 1.2
v -1.8 0.4 1
v -1.8 1.8 -2.4
v -1.8 1.8 -3.6
v -1.8 4.6 -2.4
v -1.8 4.6 -3.6
v -1.6 0.2 3
v -1.6 0.2 2.8
v -1.6 0.2 2.6
v -1.6 0.2 2.4
v -1.6 0.2 2.2
v -1.6 0.2 2
v -1.6 0.2 1.8
v -1.6 0.2 1.6
v -1.6 0.4 3
v -1.6 0.4 2.8
v -1.6 0.4 2.6
v -1.6 0.4 2.4
v -1.6 0.4 2.2
v -1.6 0.4 2
v -1.6 0.4 1.8
v -1.6 0.4 1.6
v -1.5 0 0.5
v -1.5 0 0.4
v -1.5 0.1 0.5
v -1.5 0.3 0.5
v -1.5 0.3 0.4
v -1.5 0.3 0.3
v -1.5 0.3 0.2
v -1.5 0.4 0.4
v -1.5 0.4 0.3
v -1.5 0.4 0.2
v -1.4 0.2 1.2
v -1.4 0.2 1
v -1.4 0.4 1.2
v -1.4 0.4 1
v -1.4 1.2 -1
v -1.4 1.2 -2.6
v -1.4 1.4 -1
v -1.4 1.4 -2.6
v -1.2 0.2 3
v -1.2 0.2 2.8
v -1.2 0.2 2.6
v -1.2 0.2 2.4
v -1.2 0.2 2.2
v -1.2 0.2 2
v -1.2 0.2 1.8
v -1.2 0.2 1.6
v -1.2 0.4 3
v -1.2 0.4 2.8
v -1.2 0.4 2.6
v -1.2 0.4 2.4
v -1.2 0.4 2.2
v -1.2 0.4 2
v -1.2 0.4 1.8
v -1.2 0.4 1.6
v -1 0.2 1.2
v -1 0.2 1
v -1 0.4 1.2
v -1 0.4 1
v -0.8 0.2 2.6
v -0.8 0.2 2.4
v -0.8 0.2 2.2
v -0.8 0.2 2
v -0.8 0.2 1.8
v -0.8 0.2 1.6
v -0.8 0.4 2.6
v -0.8 0.4 2.4
v -0.8 0.4 2.2
v -0.8 0.4 2
v -0.8 0.4 1.8
v -0.8 0.4 1.6
v -0.8 1.4 -1.6
v -0.8 1.4 -2
v -0.8 1.8 -1.6
v -0.8 1.8 -2
v -0.6 0.2 1.2
v -0.6 0.2 1
v -0.6 0.4 1.2
v -0.6 0.4 1
v -0.4 0.2 2.6
v -0.4 0.2 2.4
v -0.4 0.2 2.2
v -0.4 0.2 2
v -0.4 0.2 1.8
v -0.4 0.2 1.6
v -0.4 0.4 2.6
v -0.4 0.4 2.4
v -0.4 0.4 2.2
v -0.4 0.4 2
v -0.4 0.4 1.8
v -0.4 0.4 1.6
v -0.4 0.6 0.2
v -0.4 0.6 2.38419e-007
v -0.4 0.7 2.38419e-007
v -0.4 0.8 0.2
v -0.4 0.8 2.38419e-007
v -0.2 0.2 1.2
v -0.2 0.2 1
v -0.2 0.4 1.2
v -0.2 0.4 1
v 0 0.2 2.6
v 0 0.2 2.4
v 0 0.2 2.2
v 0 0.2 2
v 0 0.2 1.8
v 0 0.2 1.6
v 0 0.4 2.6
v 0 0.4 2.4
v 0 0.4 2.2
v 0 0.4 2
v 0 0.4 1.8
v 0 0.4 1.6
v 0.2 0.2 1.2
v 0.2 0.2 1
v 0.2 0.4 1.2
v 0.2 0.4 1
v 0.4 0.2 3
v 0.4 0.2 2.8
v 0.4 0.2 2.6
v 0.4 0.2 2.4
v 0.4 0.2 2.2
v 0.4 0.2 2
v 0.4 0.2 1.8
v 0.4 0.2 1.6
v 0.4 0.4 3
v 0.4 0.4 2.8
v 0.4 0.4 2.6
v 0.4 0.4 2.4
v 0.4 0.4 2.2
v 0.4 0.4 2
v 0.4 0.4 1.8
v 0.4 0.4 1.6
v 0.6 0.2 1.2
v 0.6 0.2 1
v 0.6 0.4 1.2
v 0.6 0.4 1
v 0.8 0.2 3
v 0.8 0.2 2.8
v 0.8 0.2 2.6
v 0.8 0.2 2
v 0.8 0.2 1.8
v 0.8 0.2 1.6
v 0.8 0.4 3
v 0.8 0.4 2.8
v 0.8 0.4 2.6
v 0.8 0.4 2
v 0.8 0.4 1.8
v 0.8 0.4 1.6
v 0.8 2 0.2
v 0.8 2 2.38419e-007
v 0.8 4.8 0.2
v 0.8 4.8 2.38419e-007
v 1 0.2 1.2
v 1 0.2 1
v 1 0.4 1.2
v 1 0.4 1
v 1.6 0.2 3
v 1.6 0.2 2.8
v 1.6 0.2 1.6
v 1.6 0.2 1.4
v 1.6 0.2 1.2
v 1.6 0.2 1
v 1.6 0.4 3
v 1.6 0.4 2.8
v 1.6 0.4 1.6
v 1.6 0.4 1.4
v 1.6 0.4 1.2
v 1.6 0.4 1
v 2 0.2 3
v 2 0.2 2.8
v 2 0.2 2.6
v 2 0.2 2.4
v 2 0.2 1.6
v 2 0.2 1.4
v 2 0.2 1.2
v 2 0.2 1
v 2 0.2 0.2
v 2 0.2 2.38419e-007
v 2 0.4 3
v 2 0.4 2.8
v 2 0.4 2.6
v 2 0.4 2.4
v 2 0.4 1.6
v 2 0.4 1.4
v 2 0.4 1.2
v 2 0.4 1
v 2 0.5 2.38419e-007
v 2 0.6 0.2
v 2 0.6 2.38419e-007
v 2 0.8 0.2
v 2 0.8 2.38419e-007
v 2 0.9 2.38419e-007
v 2 1 0.2
v 2 1 2.38419e-007
v 2.4 0.2 3
v 2.4 0.2 2.8
v 2.4 0.2 1.6
v 2.4 0.2 1.4
v 2.4 0.2 1.2
v 2.4 0.2 1
v 2.4 0.4 3
v 2.4 0.4 2.8
v 2.4 0.4 1.6
v 2.4 0.4 1.4
v 2.4 0.4 1.2
v 2.4 0.4 1
v 3 0.2 3
v 3 0.2 2.8
v 3 0.2 2.6
v 3 0.2 2.4
v 3 0.2 2.2
v 3 0.2 2
v 3 0.2 1.8
v 3 0.2 1.6
v 3 0.4 3
v 3 0.4 2.8
v 3 0.4 2.6
v 3 0.4 2.4
v 3 0.4 2.2
v 3 0.4 2
v 3 0.4 1.8
v 3 0.4 1.6
v 3.4 0.2 3
v 3.4 0.2 2.8
v 3.4 0.2 2.6
v 3.4 0.2 2.4
v 3.4 0.2 2.2
v 3.4 0.2 2
v 3.4 0.2 1.8
v 3.4 0.2 1.6
v 3.4 0.4 3
v 3.4 0.4 2.8
v 3.4 0.4 2.6
v 3.4 0.4 2.4
v 3.4 0.4 2.2
v 3.4 0.4 2
v 3.4 0.4 1.8
v 3.4 0.4 1.6
v 3.8 0.2 3
v 3.8 0.2 2.8
v 3.8 0.2 2.6
v 3.8 0.2 2.4
v 3.8 0.2 2.2
v 3.8 0.2 2
v 3.8 0.2 1.8
v 3.8 0.2 1.6
v 3.8 0.4 3
v 3.8 0.4 2.8
v 3.8 0.4 2.6
v 3.8 0.4 2.4
v 3.8 0.4 2.2
v 3.8 0.4 2
v 3.8 0.4 1.8
v 3.8 0.4 1.6
v -3 0.2 3
v -3 0.2 2.8
v -3 0.2 2.6
v -3 0.2 2.4
v -3 0.2 2.2
v -3 0.2 2
v -3 0.2 1.8
v -3 0.2 1.6
v -3 0.2 1.2
v -3 0.2 1
v -3 0.4 3
v -3 0.4 2.8
v -3 0.4 2.6
v -3 0.4 2.4
v -3 0.4 2.2
v -3 0.4 2
v -3 0.4 1.8
v -3 0.4 1.6
v -3 0.4 1.2
v -3 0.4 1
v -2.6 0.2 3
v -2.6 0.2 2.8
v -2.6 0.2 2.6
v -2.6 0.2 2.4
v -2.6 0.2 2.2
v -2.6 0.2 2
v -2.6 0.2 1.8
v -2.6 0.2 1.6
v -2.6 0.4 3
v -2.6 0.4 2.8
v -2.6 0.4 2.6
v -2.6 0.4 2.4
v -2.6 0.4 2.2
v -2.6 0.4 2
v -2.6 0.4 1.8
v -2.6 0.4 1.6
v -2.4 0.2 1.2
v -2.4 0.2 1
v -2.4 0.4 1.2
v -2.4 0.4 1
v -2.3 0 0.8
v -2.3 0 0.7
v -2.3 0.1 0.8
v -2.3 0.1 0.7
v -2.2 0.2 3
v -2.2 0.2 2.8
v -2.2 0.2 2.6
v -2.2 0.2 2.4
v -2.2 0.2 2.2
v -2.2 0.2 2
v -2.2 0.2 1.8
v -2.2 0.2 1.6
v -2.2 0.4 3
v -2.2 0.4 2.8
v -2.2 0.4 2.6
v -2.2 0.4 2.4
v -2.2 0.4 2.2
v -2.2 0.4 2
v -2.2 0.4 1.8
v -2.2 0.4 1.6
v -2 0 0.7
v -2 0 0.6
v -2 0.1 0.7
v -2 0.1 0.6
v -2 0.2 1.2
v -2 0.2 1
v -2 0.4 1.2
v -2 0.4 1
v -2 2 0.2
v -2 2 2.38419e-007
v -2 4.8 0.2
v -2 4.8 2.38419e-007
v -1.8 0.2 3
v -1.8 0.2 2.8
v -1.8 0.2 2.6
v -1.8 0.2 2.4
v -1.8 0.2 2.2
v -1.8 0.2 2
v -1.8 0.2 1.8
v -1.8 0.2 1.6
v -1.8 0.4 3
v -1.8 0.4 2.8
v -1.8 0.4 2.6
v -1.8 0.4 2.4
v -1.8 0.4 2.2
v -1.8 0.4 2
v -1.8 0.4 1.8
v -1.8 0.4 1.6
v -1.6 0.2 1.2
v -1.6 0.2 1
v -1.6 0.4 1.2
v -1.6 0.4 1
v -1.4 0 0.6
v -1.4 0 0.4
v -1.4 0.1 0.6
v -1.4 0.1 0.5
v -1.4 0.2 3
v -1.4 0.2 2.8
v -1.4 0.2 2.6
v -1.4 0.2 2.4
v -1.4 0.2 2.2
v -1.4 0.2 2
v -1.4 0.2 1.8
v -1.4 0.2 1.6
v -1.4 0.3 0.5
v -1.4 0.3 0.4
v -1.4 0.3 0.3
v -1.4 0.3 0.2
v -1.4 0.4 3
v -1.4 0.4 2.8
v -1.4 0.4 2.6
v -1.4 0.4 2.4
v -1.4 0.4 2.2
v -1.4 0.4 2
v -1.4 0.4 1.8
v -1.4 0.4 1.6
v -1.4 0.4 0.4
v -1.4 0.4 0.3
v -1.4 0.4 0.2
v -1.2 0.2 1.2
v -1.2 0.2 1
v -1.2 0.4 1.2
v -1.2 0.4 1
v -1.2 0.6 0.2
v -1.2 0.6 2.38419e-007
v -1.2 0.7 2.38419e-007
v -1.2 0.8 0.2
v -1.2 0.8 2.38419e-007
v -1 0.2 2.6
v -1 0.2 2.4
v -1 0.2 2.2
v -1 0.2 2
v -1 0.2 1.8
v -1 0.2 1.6
v -1 0.4 2.6
v -1 0.4 2.4
v -1 0.4 2.2
v -1 0.4 2
v -1 0.4 1.8
v -1 0.4 1.6
v -0.8 0.2 1.2
v -0.8 0.2 1
v -0.8 0.4 1.2
v -0.8 0.4 1
v -0.6 0.2 2.6
v -0.6 0.2 2.4
v -0.6 0.2 2.2
v -0.6 0.2 2
v -0.6 0.2 1.8
v -0.6 0.2 1.6
v -0.6 0.4 2.6
v -0.6 0.4 2.4
v -0.6 0.4 2.2
v -0.6 0.4 2
v -0.6 0.4 1.8
v -0.6 0.4 1.6
v -0.4 0.2 1.2
v -0.4 0.2 1
v -0.4 0.4 1.2
v -0.4 0.4 1
v -0.4 1.4 -1.6
v -0.4 1.4 -2
v -0.4 1.8 -1.6
v -0.4 1.8 -2
v -0.2 0.2 2.6
v -0.2 0.2 2.4
v -0.2 0.2 2.2
v -0.2 0.2 2
v -0.2 0.2 1.8
v -0.2 0.2 1.6
v -0.2 0.4 2.6
v -0.2 0.4 2.4
v -0.2 0.4 2.2
v -0.2 0.4 2
v -0.2 0.4 1.8
v -0.2 0.4 1.6
v 0 0.2 1.2
v 0 0.2 1
v 0 0.4 1.2
v 0 0.4 1
v 0.2 0.2 3
v 0.2 0.2 2.8
v 0.2 0.2 2.6
v 0.2 0.2 2.4
v 0.2 0.2 2.2
v 0.2 0.2 2
v 0.2 0.2 1.8
v 0.2 0.2 1.6
v 0.2 0.4 3
v 0.2 0.4 2.8
v 0.2 0.4 2.6
v 0.2 0.4 2.4
v 0.2 0.4 2.2
v 0.2 0.4 2
v 0.2 0.4 1.8
v 0.2 0.4 1.6
v 0.2 1.2 -1
v 0.2 1.2 -2.6
v 0.2 1.4 -1
v 0.2 1.4 -2.6
v 0.4 0.2 1.2
v 0.4 0.2 1
v 0.4 0.4 1.2
v 0.4 0.4 1
v 0.6 0.2 3
v 0.6 0.2 2.8
v 0.6 0.2 2.6
v 0.6 0.2 2.4
v 0.6 0.2 2.2
v 0.6 0.2 2
v 0.6 0.2 1.8
v 0.6 0.2 1.6
v 0.6 0.2 0.2
v 0.6 0.2 2.38419e-007
v 0.6 0.4 3
v 0.6 0.4 2.8
v 0.6 0.4 2.6
v 0.6 0.4 2.4
v 0.6 0.4 2.2
v 0.6 0.4 2
v 0.6 0.4 1.8
v 0.6 0.4 1.6
v 0.6 0.5 2.38419e-007
v 0.6 0.6 0.2
v 0.6 0.6 2.38419e-007
v 0.6 0.8 0.2
v 0.6 0.8 2.38419e-007
v 0.6 0.9 2.38419e-007
v 0.6 1 0.2
v 0.6 1 2.38419e-007
v 0.6 1.8 -2.4
v 0.6 1.8 -3.6
v 0.6 4.6 -2.4
v 0.6 4.6 -3.6
v 0.8 0.2 1.2
v 0.8 0.2 1
v 0.8 0.4 1.2
v 0.8 0.4 1
v 0.8 1.8 -1
v 0.8 1.8 -2.4
v 0.8 4.8 -1
v 0.8 4.8 -2.4
v 1 0.2 2.6
v 1 0.2 2.4
v 1 0.2 1.8
v 1 0.2 1.6
v 1 0.4 2.6
v 1 0.4 2.4
v 1 0.4 1.8
v 1 0.4 1.6
v 1 1.8 0.2
v 1 1.8 -1
v 1 5 0.2
v 1 5 -1
v 1.2 0.2 3
v 1.2 0.2 2.8
v 1.2 0.2 2.4
v 1.2 0.2 2
v 1.2 0.2 1.2
v 1.2 0.2 1
v 1.2 0.4 3
v 1.2 0.4 2.8
v 1.2 0.4 2.4
v 1.2 0.4 2
v 1.2 0.4 1.2
v 1.2 0.4 1
v 1.8 0.2 3
v 1.8 0.2 2.8
v 1.8 0.2 1.6
v 1.8 0.2 1.4
v 1.8 0.2 1.2
v 1.8 0.2 1
v 1.8 0.4 3
v 1.8 0.4 2.8
v 1.8 0.4 1.6
v 1.8 0.4 1.4
v 1.8 0.4 1.2
v 1.8 0.4 1
v 2.2 0 0.2
v 2.2 0 -3.8
v 2.2 0.2 3
v 2.2 0.2 2.8
v 2.2 0.2 2.6
v 2.2 0.2 2.4
v 2.2 0.2 1.6
v 2.2 0.2 1.4
v 2.2 0.2 1.2
v 2.2 0.2 1
v 2.2 0.4 3
v 2.2 0.4 2.8
v 2.2 0.4 2.6
v 2.2 0.4 2.4
v 2.2 0.4 1.6
v 2.2 0.4 1.4
v 2.2 0.4 1.2
v 2.2 0.4 1
v 2.2 1.2 0.2
v 2.2 1.2 -3.8
v 2.6 0.2 3
v 2.6 0.2 2.8
v 2.6 0.2 1.6
v 2.6 0.2 1.4
v 2.6 0.2 1.2
v 2.6 0.2 1
v 2.6 0.4 3
v 2.6 0.4 2.8
v 2.6 0.4 1.6
v 2.6 0.4 1.4
v 2.6 0.4 1.2
v 2.6 0.4 1
v 3.2 0.2 3
v 3.2 0.2 2.8
v 3.2 0.2 2.6
v 3.2 0.2 2.4
v 3.2 0.2 2.2
v 3.2 0.2 2
v 3.2 0.2 1.8
v 3.2 0.2 1.6
v 3.2 0.4 3
v 3.2 0.4 2.8
v 3.2 0.4 2.6
v 3.2 0.4 2.4
v 3.2 0.4 2.2
v 3.2 0.4 2
v 3.2 0.4 1.8
v 3.2 0.4 1.6
v 3.6 0.2 3
v 3.6 0.2 2.8
v 3.6 0.2 2.6
v 3.6 0.2 2.4
v 3.6 0.2 2.2
v 3.6 0.2 2
v 3.6 0.2 1.8
v 3.6 0.2 1.6
v 3.6 0.4 3
v 3.6 0.4 2.8
v 3.6 0.4 2.6
v 3.6 0.4 2.4
v 3.6 0.4 2.2
v 3.6 0.4 2
v 3.6 0.4 1.8
v 3.6 0.4 1.6
v 4 0.2 3
v 4 0.2 2.8
v 4 0.2 2.6
v 4 0.2 2.4
v 4 0.2 2.2
v 4 0.2 2
v 4 0.2 1.8
v 4 0.2 1.6
v 4 0.4 3
v 4 0.4 2.8
v 4 0.4 2.6
v 4 0.4 2.4
v 4 0.4 2.2
v 4 0.4 2
v 4 0.4 1.8
v 4 0.4 1.6
v 4.2 0 3.4
v 4.2 0 0.8
v 4.2 0.2 3.4
v 4.2 0.2 0.8
v -3.6 0 3.4
v -3.6 0.2 3.4
v 4.2 0 3.4
v 4.2 0.2 3.4
v -3.2 0.2 3
v -3.2 0.4 3
v -3 0.2 3
v -3 0.4 3
v -2.8 0.2 3
v -2.8 0.4 3
v -2.6 0.2 3
v -2.6 0.4 3
v -2.4 0.2 3
v -2.4 0.4 3
v -2.2 0.2 3
v -2.2 0.4 3
v -2 0.2 3
v -2 0.4 3
v -1.8 0.2 3
v -1.8 0.4 3
v -1.6 0.2 3
v -1.6 0.4 3
v -1.4 0.2 3
v -1.4 0.4 3
v -1.2 0.2 3
v -1.2 0.4 3
v 0.2 0.2 3
v 0.2 0.4 3
v 0.4 0.2 3
v 0.4 0.4 3
v 0.6 0.2 3
v 0.6 0.4 3
v 0.8 0.2 3
v 0.8 0.4 3
v 1.2 0.2 3
v 1.2 0.4 3
v 1.6 0.2 3
v 1.6 0.4 3
v 1.8 0.2 3
v 1.8 0.4 3
v 2 0.2 3
v 2 0.4 3
v 2.2 0.2 3
v 2.2 0.4 3
v 2.4 0.2 3
v 2.4 0.4 3
v 2.6 0.2 3
v 2.6 0.4 3
v 3 0.2 3
v 3 0.4 3
v 3.2 0.2 3
v 3.2 0.4 3
v 3.4 0.2 3
v 3.4 0.4 3
v 3.6 0.2 3
v 3.6 0.4 3
v 3.8 0.2 3
v 3.8 0.4 3
v 4 0.2 3
v 4 0.4 3
v -3.2 0.2 2.6
v -3.2 0.4 2.6
v -3 0.2 2.6
v -3 0.4 2.6
v -2.8 0.2 2.6
v -2.8 0.4 2.6
v -2.6 0.2 2.6
v -2.6 0.4 2.6
v -2.4 0.2 2.6
v -2.4 0.4 2.6
v -2.2 0.2 2.6
v -2.2 0.4 2.6
v -2 0.2 2.6
v -2 0.4 2.6
v -1.8 0.2 2.6
v -1.8 0.4 2.6
v -1.6 0.2 2.6
v -1.6 0.4 2.6
v -1.4 0.2 2.6
v -1.4 0.4 2.6
v -1.2 0.2 2.6
v -1.2 0.4 2.6
v -1 0.2 2.6
v -1 0.4 2.6
v -0.8 0.2 2.6
v -0.8 0.4 2.6
v -0.6 0.2 2.6
v -0.6 0.4 2.6
v -0.4 0.2 2.6
v -0.4 0.4 2.6
v -0.2 0.2 2.6
v -0.2 0.4 2.6
v 0 0.2 2.6
v 0 0.4 2.6
v 0.2 0.2 2.6
v 0.2 0.4 2.6
v 0.4 0.2 2.6
v 0.4 0.4 2.6
v 0.6 0.2 2.6
v 0.6 0.4 2.6
v 0.8 0.2 2.6
v 0.8 0.4 2.6
v 1 0.2 2.6
v 1 0.4 2.6
v 2 0.2 2.6
v 2 0.4 2.6
v 2.2 0.2 2.6
v 2.2 0.4 2.6
v 3 0.2 2.6
v 3 0.4 2.6
v 3.2 0.2 2.6
v 3.2 0.4 2.6
v 3.4 0.2 2.6
v 3.4 0.4 2.6
v 3.6 0.2 2.6
v 3.6 0.4 2.6
v 3.8 0.2 2.6
v 3.8 0.4 2.6
v 4 0.2 2.6
v 4 0.4 2.6
v 1 0.2 2.4
v 1 0.4 2.4
v 1.2 0.2 2.4
v 1.2 0.4 2.4
v -3.2 0.2 2.2
v -3.2 0.4 2.2
v -3 0.2 2.2
v -3 0.4 2.2
v -2.8 0.2 2.2
v -2.8 0.4 2.2
v -2.6 0.2 2.2
v -2.6 0.4 2.2
v -2.4 0.2 2.2
v -2.4 0.4 2.2
v -2.2 0.2 2.2
v -2.2 0.4 2.2
v -2 0.2 2.2
v -2 0.4 2.2
v -1.8 0.2 2.2
v -1.8 0.4 2.2
v -1.6 0.2 2.2
v -1.6 0.4 2.2
v -1.4 0.2 2.2
v -1.4 0.4 2.2
v -1.2 0.2 2.2
v -1.2 0.4 2.2
v -1 0.2 2.2
v -1 0.4 2.2
v -0.8 0.2 2.2
v -0.8 0.4 2.2
v -0.6 0.2 2.2
v -0.6 0.4 2.2
v -0.4 0.2 2.2
v -0.4 0.4 2.2
v -0.2 0.2 2.2
v -0.2 0.4 2.2
v 0 0.2 2.2
v 0 0.4 2.2
v 0.2 0.2 2.2
v 0.2 0.4 2.2
v 0.4 0.2 2.2
v 0.4 0.4 2.2
v 0.6 0.2 2.2
v 0.6 0.4 2.2
v 3 0.2 2.2
v 3 0.4 2.2
v 3.2 0.2 2.2
v 3.2 0.4 2.2
v 3.4 0.2 2.2
v 3.4 0.4 2.2
v 3.6 0.2 2.2
v 3.6 0.4 2.2
v 3.8 0.2 2.2
v 3.8 0.4 2.2
v 4 0.2 2.2
v 4 0.4 2.2
v -3.2 0.2 1.8
v -3.2 0.4 1.8
v -3 0.2 1.8
v -3 0.4 1.8
v -2.8 0.2 1.8
v -2.8 0.4 1.8
v -2.6 0.2 1.8
v -2.6 0.4 1.8
v -2.4 0.2 1.8
v -2.4 0.4 1.8
v -2.2 0.2 1.8
v -2.2 0.4 1.8
v -2 0.2 1.8
v -2 0.4 1.8
v -1.8 0.2 1.8
v -1.8 0.4 1.8
v -1.6 0.2 1.8
v -1.6 0.4 1.8
v -1.4 0.2 1.8
v -1.4 0.4 1.8
v -1.2 0.2 1.8
v -1.2 0.4 1.8
v -1 0.2 1.8
v -1 0.4 1.8
v -0.8 0.2 1.8
v -0.8 0.4 1.8
v -0.6 0.2 1.8
v -0.6 0.4 1.8
v -0.4 0.2 1.8
v -0.4 0.4 1.8
v -0.2 0.2 1.8
v -0.2 0.4 1.8
v 0 0.2 1.8
v 0 0.4 1.8
v 0.2 0.2 1.8
v 0.2 0.4 1.8
v 0.4 0.2 1.8
v 0.4 0.4 1.8
v 0.6 0.2 1.8
v 0.6 0.4 1.8
v 0.8 0.2 1.8
v 0.8 0.4 1.8
v 1 0.2 1.8
v 1 0.4 1.8
v 3 0.2 1.8
v 3 0.4 1.8
v 3.2 0.2 1.8
v 3.2 0.4 1.8
v 3.4 0.2 1.8
v 3.4 0.4 1.8
v 3.6 0.2 1.8
v 3.6 0.4 1.8
v 3.8 0.2 1.8
v 3.8 0.4 1.8
v 4 0.2 1.8
v 4 0.4 1.8
v 1.6 0.2 1.6
v 1.6 0.4 1.6
v 1.8 0.2 1.6
v 1.8 0.4 1.6
v 2 0.2 1.6
v 2 0.4 1.6
v 2.2 0.2 1.6
v 2.2 0.4 1.6
v 2.4 0.2 1.6
v 2.4 0.4 1.6
v 2.6 0.2 1.6
v 2.6 0.4 1.6
v -3.2 0.2 1.2
v -3.2 0.4 1.2
v -3 0.2 1.2
v -3 0.4 1.2
v -2.6 0.2 1.2
v -2.6 0.4 1.2
v -2.4 0.2 1.2
v -2.4 0.4 1.2
v -2.2 0.2 1.2
v -2.2 0.4 1.2
v -2 0.2 1.2
v -2 0.4 1.2
v -1.8 0.2 1.2
v -1.8 0.4 1.2
v -1.6 0.2 1.2
v -1.6 0.4 1.2
v -1.4 0.2 1.2
v -1.4 0.4 1.2
v -1.2 0.2 1.2
v -1.2 0.4 1.2
v -1 0.2 1.2
v -1 0.4 1.2
v -0.8 0.2 1.2
v -0.8 0.4 1.2
v -0.6 0.2 1.2
v -0.6 0.4 1.2
v -0.4 0.2 1.2
v -0.4 0.4 1.2
v -0.2 0.2 1.2
v -0.2 0.4 1.2
v 0 0.2 1.2
v 0 0.4 1.2
v 0.2 0.2 1.2
v 0.2 0.4 1.2
v 0.4 0.2 1.2
v 0.4 0.4 1.2
v 0.6 0.2 1.2
v 0.6 0.4 1.2
v 0.8 0.2 1.2
v 0.8 0.4 1.2
v 1 0.2 1.2
v 1 0.4 1.2
v 1.2 0.2 1.2
v 1.2 0.4 1.2
v 1.6 0.2 1.2
v 1.6 0.4 1.2
v 1.8 0.2 1.2
v 1.8 0.4 1.2
v 2 0.2 1.2
v 2 0.4 1.2
v 2.2 0.2 1.2
v 2.2 0.4 1.2
v 2.4 0.2 1.2
v 2.4 0.4 1.2
v 2.6 0.2 1.2
v 2.6 0.4 1.2
v -2.3 0 0.7
v -2.3 0.1 0.7
v -2 0 0.7
v -2 0.1 0.7
v -2 0 0.6
v -2 0.1 0.6
v -1.4 0 0.6
v -1.4 0.1 0.6
v -1.5 0.1 0.5
v -1.5 0.3 0.5
v -1.4 0.1 0.5
v -1.4 0.3 0.5
v -1.5 0.3 0.4
v -1.5 0.4 0.4
v -1.4 0.3 0.4
v -1.4 0.4 0.4
v -3.2 0 0.2
v -3.2 1.2 0.2
v -3.1 0.8 0.2
v -3.1 1 0.2
v -2.8 0.8 0.2
v -2.8 1 0.2
v -2.6 0.6 0.2
v -2.6 1 0.2
v -2.2 0.6 0.2
v -2.2 1 0.2
v -2.2 1.8 0.2
v -2.2 5 0.2
v -2 2 0.2
v -2 4.8 0.2
v -1.5 0.3 0.2
v -1.5 0.4 0.2
v -1.4 0.3 0.2
v -1.4 0.4 0.2
v -1.2 0.6 0.2
v -1.2 0.8 0.2
v -0.4 0.6 0.2
v -0.4 0.8 0.2
v 0.6 0.2 0.2
v 0.6 0.6 0.2
v 0.6 0.8 0.2
v 0.6 1 0.2
v 0.8 2 0.2
v 0.8 4.8 0.2
v 1 1.8 0.2
v 1 5 0.2
v 2 0.2 0.2
v 2 0.6 0.2
v 2 0.8 0.2
v 2 1 0.2
v 2.2 0 0.2
v 2.2 1.2 0.2
v -2 2 2.38419e-007
v -2 4.8 2.38419e-007
v -1.9 4.4 2.38419e-007
v -1.9 4.5 2.38419e-007
v -1.8 3.2 2.38419e-007
v -1.8 3.3 2.38419e-007
v -1.8 3.5 2.38419e-007
v -1.8 3.6 2.38419e-007
v -1.8 3.8 2.38419e-007
v -1.8 3.9 2.38419e-007
v -1.8 4.1 2.38419e-007
v -1.8 4.2 2.38419e-007
v -1.7 3.8 2.38419e-007
v -1.7 3.9 2.38419e-007
v -1.7 4.1 2.38419e-007
v -1.7 4.2 2.38419e-007
v -1.6 3.8 2.38419e-007
v -1.6 3.9 2.38419e-007
v -1.6 4.1 2.38419e-007
v -1.6 4.2 2.38419e-007
v -1.4 3.5 2.38419e-007
v -1.4 3.6 2.38419e-007
v -1.3 3.2 2.38419e-007
v -1.3 3.3 2.38419e-007
v -1.2 0.6 2.38419e-007
v -1.2 0.7 2.38419e-007
v -1.2 0.8 2.38419e-007
v -1.2 3.5 2.38419e-007
v -1.2 3.6 2.38419e-007
v -1.2 4.4 2.38419e-007
v -1.2 4.5 2.38419e-007
v -1.1 3.2 2.38419e-007
v -1.1 3.3 2.38419e-007
v -1 4.1 2.38419e-007
v -1 4.2 2.38419e-007
v -1 4.4 2.38419e-007
v -1 4.5 2.38419e-007
v -0.9 3.2 2.38419e-007
v -0.9 3.3 2.38419e-007
v -0.8 3.5 2.38419e-007
v -0.8 3.6 2.38419e-007
v -0.8 3.8 2.38419e-007
v -0.8 3.9 2.38419e-007
v -0.8 4.1 2.38419e-007
v -0.8 4.2 2.38419e-007
v -0.8 4.4 2.38419e-007
v -0.8 4.5 2.38419e-007
v -0.7 3.2 2.38419e-007
v -0.7 3.3 2.38419e-007
v -0.7 3.8 2.38419e-007
v -0.7 3.9 2.38419e-007
v -0.6 3.2 2.38419e-007
v -0.6 3.3 2.38419e-007
v -0.6 3.5 2.38419e-007
v -0.6 3.6 2.38419e-007
v -0.6 3.8 2.38419e-007
v -0.6 3.9 2.38419e-007
v -0.6 4.1 2.38419e-007
v -0.6 4.2 2.38419e-007
v -0.5 3.8 2.38419e-007
v -0.5 3.9 2.38419e-007
v -0.5 4.4 2.38419e-007
v -0.5 4.5 2.38419e-007
v -0.4 0.6 2.38419e-007
v -0.4 0.7 2.38419e-007
v -0.4 0.8 2.38419e-007
v -0.4 3.2 2.38419e-007
v -0.4 3.3 2.38419e-007
v -0.4 4.1 2.38419e-007
v -0.4 4.2 2.38419e-007
v -0.3 3.2 2.38419e-007
v -0.3 3.3 2.38419e-007
v -0.3 3.5 2.38419e-007
v -0.3 3.6 2.38419e-007
v -0.3 4.1 2.38419e-007
v -0.3 4.2 2.38419e-007
v -0.2 3.2 2.38419e-007
v -0.2 3.3 2.38419e-007
v -0.0999999 3.2 2.38419e-007
v -0.0999999 3.3 2.38419e-007
v -0.0999999 3.5 2.38419e-007
v -0.0999999 3.6 2.38419e-007
v -0.0999999 4.1 2.38419e-007
v -0.0999999 4.2 2.38419e-007
v 0 3.5 2.38419e-007
v 0 3.6 2.38419e-007
v 0 4.1 2.38419e-007
v 0 4.2 2.38419e-007
v 0.0999999 3.5 2.38419e-007
v 0.0999999 3.6 2.38419e-007
v 0.0999999 4.1 2.38419e-007
v 0.0999999 4.2 2.38419e-007
v 0.2 3.8 2.38419e-007
v 0.2 3.9 2.38419e-007
v 0.3 3.5 2.38419e-007
v 0.3 3.6 2.38419e-007
v 0.3 3.8 2.38419e-007
v 0.3 3.9 2.38419e-007
v 0.3 4.4 2.38419e-007
v 0.3 4.5 2.38419e-007
v 0.4 3.5 2.38419e-007
v 0.4 3.6 2.38419e-007
v 0.4 4.1 2.38419e-007
v 0.4 4.2 2.38419e-007
v 0.4 4.4 2.38419e-007
v 0.4 4.5 2.38419e-007
v 0.5 3.5 2.38419e-007
v 0.5 3.6 2.38419e-007
v 0.5 3.8 2.38419e-007
v 0.5 3.9 2.38419e-007
v 0.5 4.4 2.38419e-007
v 0.5 4.5 2.38419e-007
v 0.6 0.2 2.38419e-007
v 0.6 0.5 2.38419e-007
v 0.6 0.6 2.38419e-007
v 0.6 0.8 2.38419e-007
v 0.6 0.9 2.38419e-007
v 0.6 1 2.38419e-007
v 0.8 2 2.38419e-007
v 0.8 4.8 2.38419e-007
v 2 0.2 2.38419e-007
v 2 0.5 2.38419e-007
v 2 0.6 2.38419e-007
v 2 0.8 2.38419e-007
v 2 0.9 2.38419e-007
v 2 1 2.38419e-007
v -1.4 1.2 -1
v -1.4 1.4 -1
v 0.2 1.2 -1
v 0.2 1.4 -1
v -0.8 1.4 -1.6
v -0.8 1.8 -1.6
v -0.4 1.4 -1.6
v -0.4 1.8 -1.6
v -3.2 0.2 2.8
v -3.2 0.4 2.8
v -3 0.2 2.8
v -3 0.4 2.8
v -2.8 0.2 2.8
v -2.8 0.4 2.8
v -2.6 0.2 2.8
v -2.6 0.4 2.8
v -2.4 0.2 2.8
v -2.4 0.4 2.8
v -2.2 0.2 2.8
v -2.2 0.4 2.8
v -2 0.2 2.8
v -2 0.4 2.8
v -1.8 0.2 2.8
v -1.8 0.4 2.8
v -1.6 0.2 2.8
v -1.6 0.4 2.8
v -1.4 0.2 2.8
v -1.4 0.4 2.8
v -1.2 0.2 2.8
v -1.2 0.4 2.8
v 0.2 0.2 2.8
v 0.2 0.4 2.8
v 0.4 0.2 2.8
v 0.4 0.4 2.8
v 0.6 0.2 2.8
v 0.6 0.4 2.8
v 0.8 0.2 2.8
v 0.8 0.4 2.8
v 1.2 0.2 2.8
v 1.2 0.4 2.8
v 1.6 0.2 2.8
v 1.6 0.4 2.8
v 1.8 0.2 2.8
v 1.8 0.4 2.8
v 2 0.2 2.8
v 2 0.4 2.8
v 2.2 0.2 2.8
v 2.2 0.4 2.8
v 2.4 0.2 2.8
v 2.4 0.4 2.8
v 2.6 0.2 2.8
v 2.6 0.4 2.8
v 3 0.2 2.8
v 3 0.4 2.8
v 3.2 0.2 2.8
v 3.2 0.4 2.8
v 3.4 0.2 2.8
v 3.4 0.4 2.8
v 3.6 0.2 2.8
v 3.6 0.4 2.8
v 3.8 0.2 2.8
v 3.8 0.4 2.8
v 4 0.2 2.8
v 4 0.4 2.8
v -3.2 0.2 2.4
v -3.2 0.4 2.4
v -3 0.2 2.4
v -3 0.4 2.4
v -2.8 0.2 2.4
v -2.8 0.4 2.4
v -2.6 0.2 2.4
v -2.6 0.4 2.4
v -2.4 0.2 2.4
v -2.4 0.4 2.4
v -2.2 0.2 2.4
v -2.2 0.4 2.4
v -2 0.2 2.4
v -2 0.4 2.4
v -1.8 0.2 2.4
v -1.8 0.4 2.4
v -1.6 0.2 2.4
v -1.6 0.4 2.4
v -1.4 0.2 2.4
v -1.4 0.4 2.4
v -1.2 0.2 2.4
v -1.2 0.4 2.4
v -1 0.2 2.4
v -1 0.4 2.4
v -0.8 0.2 2.4
v -0.8 0.4 2.4
v -0.6 0.2 2.4
v -0.6 0.4 2.4
v -0.4 0.2 2.4
v -0.4 0.4 2.4
v -0.2 0.2 2.4
v -0.2 0.4 2.4
v 0 0.2 2.4
v 0 0.4 2.4
v 0.2 0.2 2.4
v 0.2 0.4 2.4
v 0.4 0.2 2.4
v 0.4 0.4 2.4
v 0.6 0.2 2.4
v 0.6 0.4 2.4
v 2 0.2 2.4
v 2 0.4 2.4
v 2.2 0.2 2.4
v 2.2 0.4 2.4
v 3 0.2 2.4
v 3 0.4 2.4
v 3.2 0.2 2.4
v 3.2 0.4 2.4
v 3.4 0.2 2.4
v 3.4 0.4 2.4
v 3.6 0.2 2.4
v 3.6 0.4 2.4
v 3.8 0.2 2.4
v 3.8 0.4 2.4
v 4 0.2 2.4
v 4 0.4 2.4
v -3.2 0.2 2
v -3.2 0.4 2
v -3 0.2 2
v -3 0.4 2
v -2.8 0.2 2
v -2.8 0.4 2
v -2.6 0.2 2
v -2.6 0.4 2
v -2.4 0.2 2
v -2.4 0.4 2
v -2.2 0.2 2
v -2.2 0.4 2
v -2 0.2 2
v -2 0.4 2
v -1.8 0.2 2
v -1.8 0.4 2
v -1.6 0.2 2
v -1.6 0.4 2
v -1.4 0.2 2
v -1.4 0.4 2
v -1.2 0.2 2
v -1.2 0.4 2
v -1 0.2 2
v -1 0.4 2
v -0.8 0.2 2
v -0.8 0.4 2
v -0.6 0.2 2
v -0.6 0.4 2
v -0.4 0.2 2
v -0.4 0.4 2
v -0.2 0.2 2
v -0.2 0.4 2
v 0 0.2 2
v 0 0.4 2
v 0.2 0.2 2
v 0.2 0.4 2
v 0.4 0.2 2
v 0.4 0.4 2
v 0.6 0.2 2
v 0.6 0.4 2
v 0.8 0.2 2
v 0.8 0.4 2
v 1.2 0.2 2
v 1.2 0.4 2
v 3 0.2 2
v 3 0.4 2
v 3.2 0.2 2
v 3.2 0.4 2
v 3.4 0.2 2
v 3.4 0.4 2
v 3.6 0.2 2
v 3.6 0.4 2
v 3.8 0.2 2
v 3.8 0.4 2
v 4 0.2 2
v 4 0.4 2
v -3.2 0.2 1.6
v -3.2 0.4 1.6
v -3 0.2 1.6
v -3 0.4 1.6
v -2.8 0.2 1.6
v -2.8 0.4 1.6
v -2.6 0.2 1.6
v -2.6 0.4 1.6
v -2.4 0.2 1.6
v -2.4 0.4 1.6
v -2.2 0.2 1.6
v -2.2 0.4 1.6
v -2 0.2 1.6
v -2 0.4 1.6
v -1.8 0.2 1.6
v -1.8 0.4 1.6
v -1.6 0.2 1.6
v -1.6 0.4 1.6
v -1.4 0.2 1.6
v -1.4 0.4 1.6
v -1.2 0.2 1.6
v -1.2 0.4 1.6
v -1 0.2 1.6
v -1 0.4 1.6
v -0.8 0.2 1.6
v -0.8 0.4 1.6
v -0.6 0.2 1.6
v -0.6 0.4 1.6
v -0.4 0.2 1.6
v -0.4 0.4 1.6
v -0.2 0.2 1.6
v -0.2 0.4 1.6
v 0 0.2 1.6
v 0 0.4 1.6
v 0.2 0.2 1.6
v 0.2 0.4 1.6
v 0.4 0.2 1.6
v 0.4 0.4 1.6
v 0.6 0.2 1.6
v 0.6 0.4 1.6
v 0.8 0.2 1.6
v 0.8 0.4 1.6
v 1 0.2 1.6
v 1 0.4 1.6
v 3 0.2 1.6
v 3 0.4 1.6
v 3.2 0.2 1.6
v 3.2 0.4 1.6
v 3.4 0.2 1.6
v 3.4 0.4 1.6
v 3.6 0.2 1.6
v 3.6 0.4 1.6
v 3.8 0.2 1.6
v 3.8 0.4 1.6
v 4 0.2 1.6
v 4 0.4 1.6
v 1.6 0.2 1.4
v 1.6 0.4 1.4
v 1.8 0.2 1.4
v 1.8 0.4 1.4
v 2 0.2 1.4
v 2 0.4 1.4
v 2.2 0.2 1.4
v 2.2 0.4 1.4
v 2.4 0.2 1.4
v 2.4 0.4 1.4
v 2.6 0.2 1.4
v 2.6 0.4 1.4
v -3.2 0.2 1
v -3.2 0.4 1
v -3 0.2 1
v -3 0.4 1
v -2.6 0.2 1
v -2.6 0.4 1
v -2.4 0.2 1
v -2.4 0.4 1
v -2.2 0.2 1
v -2.2 0.4 1
v -2 0.2 1
v -2 0.4 1
v -1.8 0.2 1
v -1.8 0.4 1
v -1.6 0.2 1
v -1.6 0.4 1
v -1.4 0.2 1
v -1.4 0.4 1
v -1.2 0.2 1
v -1.2 0.4 1
v -1 0.2 1
v -1 0.4 1
v -0.8 0.2 1
v -0.8 0.4 1
v -0.6 0.2 1
v -0.6 0.4 1
v -0.4 0.2 1
v -0.4 0.4 1
v -0.2 0.2 1
v -0.2 0.4 1
v 0 0.2 1
v 0 0.4 1
v 0.2 0.2 1
v 0.2 0.4 1
v 0.4 0.2 1
v 0.4 0.4 1
v 0.6 0.2 1
v 0.6 0.4 1
v 0.8 0.2 1
v 0.8 0.4 1
v 1 0.2 1
v 1 0.4 1
v 1.2 0.2 1
v 1.2 0.4 1
v 1.6 0.2 1
v 1.6 0.4 1
v 1.8 0.2 1
v 1.8 0.4 1
v 2 0.2 1
v 2 0.4 1
v 2.2 0.2 1
v 2.2 0.4 1
v 2.4 0.2 1
v 2.4 0.4 1
v 2.6 0.2 1
v 2.6 0.4 1
v -3.6 0 0.8
v -3.6 0.2 0.8
v -2.4 0 0.8
v -2.4 0.1 0.8
v -2.3 0 0.8
v -2.3 0.1 0.8
v 4.2 0 0.8
v 4.2 0.2 0.8
v -2.4 0 0.7
v -2.4 0.1 0.7
v -2.3 0 0.7
v -2.3 0.1 0.7
v -2.3 0 0.6
v -2.3 0.1 0.6
v -2 0 0.6
v -2 0.1 0.6
v -2 0 0.5
v -2 0.1 0.5
v -1.5 0 0.5
v -1.5 0.1 0.5
v -1.5 0 0.4
v -1.5 0.3 0.4
v -1.4 0 0.4
v -1.4 0.3 0.4
v -2.2 1.8 -1
v -2.2 5 -1
v -2 1.8 -1
v -2 4.8 -1
v 0.8 1.8 -1
v 0.8 4.8 -1
v 1 1.8 -1
v 1 5 -1
v -0.8 1.4 -2
v -0.8 1.8 -2
v -0.4 1.4 -2
v -0.4 1.8 -2
v -2 1.8 -2.4
v -2 4.8 -2.4
v -1.8 1.8 -2.4
v -1.8 4.6 -2.4
v 0.6 1.8 -2.4
v 0.6 4.6 -2.4
v 0.8 1.8 -2.4
v 0.8 4.8 -2.4
v -1.4 1.2 -2.6
v -1.4 1.4 -2.6
v 0.2 1.2 -2.6
v 0.2 1.4 -2.6
v -1.8 1.8 -3.6
v -1.8 4.6 -3.6
v 0.6 1.8 -3.6
v 0.6 4.6 -3.6
v -3.2 0 -3.8
v -3.2 1.2 -3.8
v 2.2 0 -3.8
v 2.2 1.2 -3.8
v -3.6 0 3.4
v 4.2 0 3.4
v -3.2 0 1.8
v -3 0 1.8
v -3.2 0 1.6
v -3 0 1.6
v -3.6 0 0.8
v -2.4 0 0.8
v -2.3 0 0.8
v 4.2 0 0.8
v -2.4 0 0.7
v -2.3 0 0.7
v -2 0 0.7
v -2.3 0 0.6
v -2 0 0.6
v -1.4 0 0.6
v -2 0 0.5
v -1.5 0 0.5
v -1.5 0 0.4
v -1.4 0 0.4
v -3.2 0 0.2
v 2.2 0 0.2
v -3.2 0 -3.8
v 2.2 0 -3.8
v -1.5 0.3 0.4
v -1.4 0.3 0.4
v -1.5 0.3 0.3
v -1.4 0.3 0.3
v -1.5 0.3 0.2
v -1.4 0.3 0.2
v 0.6 0.6 0.2
v 2 0.6 0.2
v 0.6 0.6 2.38419e-007
v 2 0.6 2.38419e-007
v -1.2 0.8 0.2
v -0.4 0.8 0.2
v -1.2 0.8 2.38419e-007
v -0.4 0.8 2.38419e-007
v 0.6 1 0.2
v 2 1 0.2
v 0.6 1 2.38419e-007
v 2 1 2.38419e-007
v -2.2 1.8 0.2
v 1 1.8 0.2
v -2.2 1.8 -1
v -2 1.8 -1
v 0.8 1.8 -1
v 1 1.8 -1
v -0.8 1.8 -1.6
v -0.4 1.8 -1.6
v -0.8 1.8 -2
v -0.4 1.8 -2
v -2 1.8 -2.4
v -1.8 1.8 -2.4
v 0.6 1.8 -2.4
v 0.8 1.8 -2.4
v -1.8 1.8 -3.6
v 0.6 1.8 -3.6
v -2 4.8 0.2
v 0.8 4.8 0.2
v -2 4.8 2.38419e-007
v 0.8 4.8 2.38419e-007
v -2.4 0.1 0.8
v -2.3 0.1 0.8
v -2.4 0.1 0.7
v -2.3 0.1 0.7
v -2 0.1 0.7
v -2.3 0.1 0.6
v -2 0.1 0.6
v -1.4 0.1 0.6
v -2 0.1 0.5
v -1.5 0.1 0.5
v -1.4 0.1 0.5
v -3.6 0.2 3.4
v 4.2 0.2 3.4
v -3.2 0.2 3
v -3 0.2 3
v -2.8 0.2 3
v -2.6 0.2 3
v -2.4 0.2 3
v -2.2 0.2 3
v -2 0.2 3
v -1.8 0.2 3
v -1.6 0.2 3
v -1.4 0.2 3
v -1.2 0.2 3
v 0.2 0.2 3
v 0.4 0.2 3
v 0.6 0.2 3
v 0.8 0.2 3
v 1.2 0.2 3
v 1.6 0.2 3
v 1.8 0.2 3
v 2 0.2 3
v 2.2 0.2 3
v 2.4 0.2 3
v 2.6 0.2 3
v 3 0.2 3
v 3.2 0.2 3
v 3.4 0.2 3
v 3.6 0.2 3
v 3.8 0.2 3
v 4 0.2 3
v -3.2 0.2 2.8
v -3 0.2 2.8
v -2.8 0.2 2.8
v -2.6 0.2 2.8
v -2.4 0.2 2.8
v -2.2 0.2 2.8
v -2 0.2 2.8
v -1.8 0.2 2.8
v -1.6 0.2 2.8
v -1.4 0.2 2.8
v -1.2 0.2 2.8
v 0.2 0.2 2.8
v 0.4 0.2 2.8
v 0.6 0.2 2.8
v 0.8 0.2 2.8
v 1.2 0.2 2.8
v 1.6 0.2 2.8
v 1.8 0.2 2.8
v 2 0.2 2.8
v 2.2 0.2 2.8
v 2.4 0.2 2.8
v 2.6 0.2 2.8
v 3 0.2 2.8
v 3.2 0.2 2.8
v 3.4 0.2 2.8
v 3.6 0.2 2.8
v 3.8 0.2 2.8
v 4 0.2 2.8
v -3.2 0.2 2.6
v -3 0.2 2.6
v -2.8 0.2 2.6
v -2.6 0.2 2.6
v -2.4 0.2 2.6
v -2.2 0.2 2.6
v -2 0.2 2.6
v -1.8 0.2 2.6
v -1.6 0.2 2.6
v -1.4 0.2 2.6
v -1.2 0.2 2.6
v -1 0.2 2.6
v -0.8 0.2 2.6
v -0.6 0.2 2.6
v -0.4 0.2 2.6
v -0.2 0.2 2.6
v 0 0.2 2.6
v 0.2 0.2 2.6
v 0.4 0.2 2.6
v 0.6 0.2 2.6
v 0.8 0.2 2.6
v 1 0.2 2.6
v 2 0.2 2.6
v 2.2 0.2 2.6
v 3 0.2 2.6
v 3.2 0.2 2.6
v 3.4 0.2 2.6
v 3.6 0.2 2.6
v 3.8 0.2 2.6
v 4 0.2 2.6
v -3.2 0.2 2.4
v -3 0.2 2.4
v -2.8 0.2 2.4
v -2.6 0.2 2.4
v -2.4 0.2 2.4
v -2.2 0.2 2.4
v -2 0.2 2.4
v -1.8 0.2 2.4
v -1.6 0.2 2.4
v -1.4 0.2 2.4
v -1.2 0.2 2.4
v -1 0.2 2.4
v -0.8 0.2 2.4
v -0.6 0.2 2.4
v -0.4 0.2 2.4
v -0.2 0.2 2.4
v 0 0.2 2.4
v 0.2 0.2 2.4
v 0.4 0.2 2.4
v 0.6 0.2 2.4
v 1 0.2 2.4
v 1.2 0.2 2.4
v 2 0.2 2.4
v 2.2 0.2 2.4
v 3 0.2 2.4
v 3.2 0.2 2.4
v 3.4 0.2 2.4
v 3.6 0.2 2.4
v 3.8 0.2 2.4
v 4 0.2 2.4
v -3.2 0.2 2.2
v -3 0.2 2.2
v -2.8 0.2 2.2
v -2.6 0.2 2.2
v -2.4 0.2 2.2
v -2.2 0.2 2.2
v -2 0.2 2.2
v -1.8 0.2 2.2
v -1.6 0.2 2.2
v -1.4 0.2 2.2
v -1.2 0.2 2.2
v -1 0.2 2.2
v -0.8 0.2 2.2
v -0.6 0.2 2.2
v -0.4 0.2 2.2
v -0.2 0.2 2.2
v 0 0.2 2.2
v 0.2 0.2 2.2
v 0.4 0.2 2.2
v 0.6 0.2 2.2
v 3 0.2 2.2
v 3.2 0.2 2.2
v 3.4 0.2 2.2
v 3.6 0.2 2.2
v 3.8 0.2 2.2
v 4 0.2 2.2
v -3.2 0.2 2
v -3 0.2 2
v -2.8 0.2 2
v -2.6 0.2 2
v -2.4 0.2 2
v -2.2 0.2 2
v -2 0.2 2
v -1.8 0.2 2
v -1.6 0.2 2
v -1.4 0.2 2
v -1.2 0.2 2
v -1 0.2 2
v -0.8 0.2 2
v -0.6 0.2 2
v -0.4 0.2 2
v -0.2 0.2 2
v 0 0.2 2
v 0.2 0.2 2
v 0.4 0.2 2
v 0.6 0.2 2
v 0.8 0.2 2
v 1.2 0.2 2
v 3 0.2 2
v 3.2 0.2 2
v 3.4 0.2 2
v 3.6 0.2 2
v 3.8 0.2 2
v 4 0.2 2
v -3.2 0.2 1.8
v -3 0.2 1.8
v -2.8 0.2 1.8
v -2.6 0.2 1.8
v -2.4 0.2 1.8
v -2.2 0.2 1.8
v -2 0.2 1.8
v -1.8 0.2 1.8
v -1.6 0.2 1.8
v -1.4 0.2 1.8
v -1.2 0.2 1.8
v -1 0.2 1.8
v -0.8 0.2 1.8
v -0.6 0.2 1.8
v -0.4 0.2 1.8
v -0.2 0.2 1.8
v 0 0.2 1.8
v 0.2 0.2 1.8
v 0.4 0.2 1.8
v 0.6 0.2 1.8
v 0.8 0.2 1.8
v 1 0.2 1.8
v 3 0.2 1.8
v 3.2 0.2 1.8
v 3.4 0.2 1.8
v 3.6 0.2 1.8
v 3.8 0.2 1.8
v 4 0.2 1.8
v -3.2 0.2 1.6
v -3 0.2 1.6
v -2.8 0.2 1.6
v -2.6 0.2 1.6
v -2.4 0.2 1.6
v -2.2 0.2 1.6
v -2 0.2 1.6
v -1.8 0.2 1.6
v -1.6 0.2 1.6
v -1.4 0.2 1.6
v -1.2 0.2 1.6
v -1 0.2 1.6
v -0.8 0.2 1.6
v -0.6 0.2 1.6
v -0.4 0.2 1.6
v -0.2 0.2 1.6
v 0 0.2 1.6
v 0.2 0.2 1.6
v 0.4 0.2 1.6
v 0.6 0.2 1.6
v 0.8 0.2 1.6
v 1 0.2 1.6
v 1.6 0.2 1.6
v 1.8 0.2 1.6
v 2 0.2 1.6
v 2.2 0.2 1.6
v 2.4 0.2 1.6
v 2.6 0.2 1.6
v 3 0.2 1.6
v 3.2 0.2 1.6
v 3.4 0.2 1.6
v 3.6 0.2 1.6
v 3.8 0.2 1.6
v 4 0.2 1.6
v 1.6 0.2 1.4
v 1.8 0.2 1.4
v 2 0.2 1.4
v 2.2 0.2 1.4
v 2.4 0.2 1.4
v 2.6 0.2 1.4
v -3.2 0.2 1.2
v -3 0.2 1.2
v -2.6 0.2 1.2
v -2.4 0.2 1.2
v -2.2 0.2 1.2
v -2 0.2 1.2
v -1.8 0.2 1.2
v -1.6 0.2 1.2
v -1.4 0.2 1.2
v -1.2 0.2 1.2
v -1 0.2 1.2
v -0.8 0.2 1.2
v -0.6 0.2 1.2
v -0.4 0.2 1.2
v -0.2 0.2 1.2
v 0 0.2 1.2
v 0.2 0.2 1.2
v 0.4 0.2 1.2
v 0.6 0.2 1.2
v 0.8 0.2 1.2
v 1 0.2 1.2
v 1.2 0.2 1.2
v 1.6 0.2 1.2
v 1.8 0.2 1.2
v 2 0.2 1.2
v 2.2 0.2 1.2
v 2.4 0.2 1.2
v 2.6 0.2 1.2
v -3.2 0.2 1
v -3 0.2 1
v -2.6 0.2 1
v -2.4 0.2 1
v -2.2 0.2 1
v -2 0.2 1
v -1.8 0.2 1
v -1.6 0.2 1
v -1.4 0.2 1
v -1.2 0.2 1
v -1 0.2 1
v -0.8 0.2 1
v -0.6 0.2 1
v -0.4 0.2 1
v -0.2 0.2 1
v 0 0.2 1
v 0.2 0.2 1
v 0.4 0.2 1
v 0.6 0.2 1
v 0.8 0.2 1
v 1 0.2 1
v 1.2 0.2 1
v 1.6 0.2 1
v 1.8 0.2 1
v 2 0.2 1
v 2.2 0.2 1
v 2.4 0.2 1
v 2.6 0.2 1
v -3.6 0.2 0.8
v 4.2 0.2 0.8
v 0.6 0.2 0.2
v 2 0.2 0.2
v 0.6 0.2 2.38419e-007
v 2 0.2 2.38419e-007
v -1.5 0.3 0.5
v -1.4 0.3 0.5
v -1.5 0.3 0.4
v -1.4 0.3 0.4
v -3.2 0.4 3
v -3 0.4 3
v -2.8 0.4 3
v -2.6 0.4 3
v -2.4 0.4 3
v -2.2 0.4 3
v -2 0.4 3
v -1.8 0.4 3
v -1.6 0.4 3
v -1.4 0.4 3
v -1.2 0.4 3
v 0.2 0.4 3
v 0.4 0.4 3
v 0.6 0.4 3
v 0.8 0.4 3
v 1.2 0.4 3
v 1.6 0.4 3
v 1.8 0.4 3
v 2 0.4 3
v 2.2 0.4 3
v 2.4 0.4 3
v 2.6 0.4 3
v 3 0.4 3
v 3.2 0.4 3
v 3.4 0.4 3
v 3.6 0.4 3
v 3.8 0.4 3
v 4 0.4 3
v -3.2 0.4 2.8
v -3 0.4 2.8
v -2.8 0.4 2.8
v -2.6 0.4 2.8
v -2.4 0.4 2.8
v -2.2 0.4 2.8
v -2 0.4 2.8
v -1.8 0.4 2.8
v -1.6 0.4 2.8
v -1.4 0.4 2.8
v -1.2 0.4 2.8
v 0.2 0.4 2.8
v 0.4 0.4 2.8
v 0.6 0.4 2.8
v 0.8 0.4 2.8
v 1.2 0.4 2.8
v 1.6 0.4 2.8
v 1.8 0.4 2.8
v 2 0.4 2.8
v 2.2 0.4 2.8
v 2.4 0.4 2.8
v 2.6 0.4 2.8
v 3 0.4 2.8
v 3.2 0.4 2.8
v 3.4 0.4 2.8
v 3.6 0.4 2.8
v 3.8 0.4 2.8
v 4 0.4 2.8
v -3.2 0.4 2.6
v -3 0.4 2.6
v -2.8 0.4 2.6
v -2.6 0.4 2.6
v -2.4 0.4 2.6
v -2.2 0.4 2.6
v -2 0.4 2.6
v -1.8 0.4 2.6
v -1.6 0.4 2.6
v -1.4 0.4 2.6
v -1.2 0.4 2.6
v -1 0.4 2.6
v -0.8 0.4 2.6
v -0.6 0.4 2.6
v -0.4 0.4 2.6
v -0.2 0.4 2.6
v 0 0.4 2.6
v 0.2 0.4 2.6
v 0.4 0.4 2.6
v 0.6 0.4 2.6
v 0.8 0.4 2.6
v 1 0.4 2.6
v 2 0.4 2.6
v 2.2 0.4 2.6
v 3 0.4 2.6
v 3.2 0.4 2.6
v 3.4 0.4 2.6
v 3.6 0.4 2.6
v 3.8 0.4 2.6
v 4 0.4 2.6
v -3.2 0.4 2.4
v -3 0.4 2.4
v -2.8 0.4 2.4
v -2.6 0.4 2.4
v -2.4 0.4 2.4
v -2.2 0.4 2.4
v -2 0.4 2.4
v -1.8 0.4 2.4
v -1.6 0.4 2.4
v -1.4 0.4 2.4
v -1.2 0.4 2.4
v -1 0.4 2.4
v -0.8 0.4 2.4
v -0.6 0.4 2.4
v -0.4 0.4 2.4
v -0.2 0.4 2.4
v 0 0.4 2.4
v 0.2 0.4 2.4
v 0.4 0.4 2.4
v 0.6 0.4 2.4
v 1 0.4 2.4
v 1.2 0.4 2.4
v 2 0.4 2.4
v 2.2 0.4 2.4
v 3 0.4 2.4
v 3.2 0.4 2.4
v 3.4 0.4 2.4
v 3.6 0.4 2.4
v 3.8 0.4 2.4
v 4 0.4 2.4
v -3.2 0.4 2.2
v -3 0.4 2.2
v -2.8 0.4 2.2
v -2.6 0.4 2.2
v -2.4 0.4 2.2
v -2.2 0.4 2.2
v -2 0.4 2.2
v -1.8 0.4 2.2
v -1.6 0.4 2.2
v -1.4 0.4 2.2
v -1.2 0.4 2.2
v -1 0.4 2.2
v -0.8 0.4 2.2
v -0.6 0.4 2.2
v -0.4 0.4 2.2
v -0.2 0.4 2.2
v 0 0.4 2.2
v 0.2 0.4 2.2
v 0.4 0.4 2.2
v 0.6 0.4 2.2
v 3 0.4 2.2
v 3.2 0.4 2.2
v 3.4 0.4 2.2
v 3.6 0.4 2.2
v 3.8 0.4 2.2
v 4 0.4 2.2
v -3.2 0.4 2
v -3 0.4 2
v -2.8 0.4 2
v -2.6 0.4 2
v -2.4 0.4 2
v -2.2 0.4 2
v -2 0.4 2
v -1.8 0.4 2
v -1.6 0.4 2
v -1.4 0.4 2
v -1.2 0.4 2
v -1 0.4 2
v -0.8 0.4 2
v -0.6 0.4 2
v -0.4 0.4 2
v -0.2 0.4 2
v 0 0.4 2
v 0.2 0.4 2
v 0.4 0.4 2
v 0.6 0.4 2
v 0.8 0.4 2
v 1.2 0.4 2
v 3 0.4 2
v 3.2 0.4 2
v 3.4 0.4 2
v 3.6 0.4 2
v 3.8 0.4 2
v 4 0.4 2
v -3.2 0.4 1.8
v -3 0.4 1.8
v -2.8 0.4 1.8
v -2.6 0.4 1.8
v -2.4 0.4 1.8
v -2.2 0.4 1.8
v -2 0.4 1.8
v -1.8 0.4 1.8
v -1.6 0.4 1.8
v -1.4 0.4 1.8
v -1.2 0.4 1.8
v -1 0.4 1.8
v -0.8 0.4 1.8
v -0.6 0.4 1.8
v -0.4 0.4 1.8
v -0.2 0.4 1.8
v 0 0.4 1.8
v 0.2 0.4 1.8
v 0.4 0.4 1.8
v 0.6 0.4 1.8
v 0.8 0.4 1.8
v 1 0.4 1.8
v 3 0.4 1.8
v 3.2 0.4 1.8
v 3.4 0.4 1.8
v 3.6 0.4 1.8
v 3.8 0.4 1.8
v 4 0.4 1.8
v -3.2 0.4 1.6
v -3 0.4 1.6
v -2.8 0.4 1.6
v -2.6 0.4 1.6
v -2.4 0.4 1.6
v -2.2 0.4 1.6
v -2 0.4 1.6
v -1.8 0.4 1.6
v -1.6 0.4 1.6
v -1.4 0.4 1.6
v -1.2 0.4 1.6
v -1 0.4 1.6
v -0.8 0.4 1.6
v -0.6 0.4 1.6
v -0.4 0.4 1.6
v -0.2 0.4 1.6
v 0 0.4 1.6
v 0.2 0.4 1.6
v 0.4 0.4 1.6
v 0.6 0.4 1.6
v 0.8 0.4 1.6
v 1 0.4 1.6
v 1.6 0.4 1.6
v 1.8 0.4 1.6
v 2 0.4 1.6
v 2.2 0.4 1.6
v 2.4 0.4 1.6
v 2.6 0.4 1.6
v 3 0.4 1.6
v 3.2 0.4 1.6
v 3.4 0.4 1.6
v 3.6 0.4 1.6
v 3.8 0.4 1.6
v 4 0.4 1.6
v 1.6 0.4 1.4
v 1.8 0.4 1.4
v 2 0.4 1.4
v 2.2 0.4 1.4
v 2.4 0.4 1.4
v 2.6 0.4 1.4
v -3.2 0.4 1.2
v -3 0.4 1.2
v -2.6 0.4 1.2
v -2.4 0.4 1.2
v -2.2 0.4 1.2
v -2 0.4 1.2
v -1.8 0.4 1.2
v -1.6 0.4 1.2
v -1.4 0.4 1.2
v -1.2 0.4 1.2
v -1 0.4 1.2
v -0.8 0.4 1.2
v -0.6 0.4 1.2
v -0.4 0.4 1.2
v -0.2 0.4 1.2
v 0 0.4 1.2
v 0.2 0.4 1.2
v 0.4 0.4 1.2
v 0.6 0.4 1.2
v 0.8 0.4 1.2
v 1 0.4 1.2
v 1.2 0.4 1.2
v 1.6 0.4 1.2
v 1.8 0.4 1.2
v 2 0.4 1.2
v 2.2 0.4 1.2
v 2.4 0.4 1.2
v 2.6 0.4 1.2
v -3.2 0.4 1
v -3 0.4 1
v -2.6 0.4 1
v -2.4 0.4 1
v -2.2 0.4 1
v -2 0.4 1
v -1.8 0.4 1
v -1.6 0.4 1
v -1.4 0.4 1
v -1.2 0.4 1
v -1 0.4 1
v -0.8 0.4 1
v -0.6 0.4 1
v -0.4 0.4 1
v -0.2 0.4 1
v 0 0.4 1
v 0.2 0.4 1
v 0.4 0.4 1
v 0.6 0.4 1
v 0.8 0.4 1
v 1 0.4 1
v 1.2 0.4 1
v 1.6 0.4 1
v 1.8 0.4 1
v 2 0.4 1
v 2.2 0.4 1
v 2.4 0.4 1
v 2.6 0.4 1
v -1.5 0.4 0.4
v -1.4 0.4 0.4
v -1.5 0.4 0.3
v -1.4 0.4 0.3
v -1.5 0.4 0.2
v -1.4 0.4 0.2
v -1.2 0.6 0.2
v -0.4 0.6 0.2
v -1.2 0.6 2.38419e-007
v -0.4 0.6 2.38419e-007
v 0.6 0.8 0.2
v 2 0.8 0.2
v 0.6 0.8 2.38419e-007
v 2 0.8 2.38419e-007
v -3.2 1.2 0.2
v 2.2 1.2 0.2
v -1.4 1.2 -1
v 0.2 1.2 -1
v -1.4 1.2 -2.6
v 0.2 1.2 -2.6
v -3.2 1.2 -3.8
v 2.2 1.2 -3.8
v -1.4 1.4 -1
v 0.2 1.4 -1
v -0.8 1.4 -1.6
v -0.4 1.4 -1.6
v -0.8 1.4 -2
v -0.4 1.4 -2
v -1.4 1.4 -2.6
v 0.2 1.4 -2.6
v -2 2 0.2
v 0.8 2 0.2
v -2 2 2.38419e-007
v 0.8 2 2.38419e-007
v -1.8 4.6 -2.4
v 0.6 4.6 -2.4
v -1.8 4.6 -3.6
v 0.6 4.6 -3.6
v -2 4.8 -1
v 0.8 4.8 -1
v -2 4.8 -2.4
v 0.8 4.8 -2.4
v -2.2 5 0.2
v 1 5 0.2
v -2.2 5 -1
v 1 5 -1

# faces
f 3/5/1 2/5/1 1/5/1
f 4/5/1 2/5/1 3/5/1
f 17/4/1 8/4/1 7/4/1
f 18/4/1 8/4/1 17/4/1
f 19/4/1 10/4/1 9/4/1
f 20/4/1 10/4/1 19/4/1
f 21/4/1 12/4/1 11/4/1
f 22/4/1 12/4/1 21/4/1
f 23/4/1 14/4/1 13/4/1
f 24/4/1 14/4/1 23/4/1
f 25/4/1 16/4/1 15/4/1
f 26/4/1 16/4/1 25/4/1
f 27/5/1 6/5/1 5/5/1
f 28/5/1 6/5/1 27/5/1
f 37/4/1 30/4/1 29/4/1
f 38/4/1 30/4/1 37/4/1
f 39/4/1 32/4/1 31/4/1
f 40/4/1 32/4/1 39/4/1
f 41/4/1 34/4/1 33/4/1
f 42/4/1 34/4/1 41/4/1
f 43/4/1 36/4/1 35/4/1
f 44/4/1 36/4/1 43/4/1
f 47/4/1 46/4/1 45/4/1
f 48/4/1 46/4/1 47/4/1
f 51/6/1 50/6/1 49/6/1
f 52/6/1 50/6/1 51/6/1
f 61/4/1 54/4/1 53/4/1
f 62/4/1 54/4/1 61/4/1
f 63/4/1 56/4/1 55/4/1
f 64/4/1 56/4/1 63/4/1
f 65/4/1 58/4/1 57/4/1
f 66/4/1 58/4/1 65/4/1
f 67/4/1 60/4/1 59/4/1
f 68/4/1 60/4/1 67/4/1
f 71/6/1 70/6/1 69/6/1
f 72/6/1 70/6/1 71/6/1
f 75/4/1 74/4/1 73/4/1
f 76/4/1 74/4/1 75/4/1
f 79/5/1 78/5/1 77/5/1
f 80/5/1 78/5/1 79/5/1
f 83/6/1 82/6/1 81/6/1
f 84/6/1 82/6/1 83/6/1
f 93/4/1 86/4/1 85/4/1
f 94/4/1 86/4/1 93/4/1
f 95/4/1 88/4/1 87/4/1
f 96/4/1 88/4/1 95/4/1
f 97/4/1 90/4/1 89/4/1
f 98/4/1 90/4/1 97/4/1
f 99/4/1 92/4/1 91/4/1
f 100/4/1 92/4/1 99/4/1
f 103/5/1 102/5/1 101/5/1
f 104/5/1 102/5/1 103/5/1
f 107/4/1 106/4/1 105/4/1
f 108/4/1 106/4/1 107/4/1
f 111/5/1 110/5/1 109/5/1
f 112/5/1 110/5/1 111/5/1
f 121/4/1 114/4/1 113/4/1
f 122/4/1 114/4/1 121/4/1
f 123/4/1 116/4/1 115/4/1
f 124/4/1 116/4/1 123/4/1
f 125/4/1 118/4/1 117/4/1
f 126/4/1 118/4/1 125/4/1
f 127/4/1 120/4/1 119/4/1
f 128/4/1 120/4/1 127/4/1
f 131/6/1 130/6/1 129/6/1
f 132/6/1 130/6/1 131/6/1
f 133/6/1 130/6/1 132/6/1
f 136/6/1 134/6/1 133/6/1
f 137/3/1 135/3/1 134/3/1
f 137/6/1 134/6/1 136/6/1
f 138/3/1 135/3/1 137/3/1
f 141/4/1 140/4/1 139/4/1
f 142/4/1 140/4/1 141/4/1
f 145/5/1 144/5/1 143/5/1
f 146/5/1 144/5/1 145/5/1
f 155/4/1 148/4/1 147/4/1
f 156/4/1 148/4/1 155/4/1
f 157/4/1 150/4/1 149/4/1
f 158/4/1 150/4/1 157/4/1
f 159/4/1 152/4/1 151/4/1
f 160/4/1 152/4/1 159/4/1
f 161/4/1 154/4/1 153/4/1
f 162/4/1 154/4/1 161/4/1
f 165/4/1 164/4/1 163/4/1
f 166/4/1 164/4/1 165/4/1
f 173/4/1 168/4/1 167/4/1
f 174/4/1 168/4/1 173/4/1
f 175/4/1 170/4/1 169/4/1
f 176/4/1 170/4/1 175/4/1
f 177/4/1 172/4/1 171/4/1
f 178/4/1 172/4/1 177/4/1
f 181/5/1 180/5/1 179/5/1
f 182/5/1 180/5/1 181/5/1
f 185/4/1 184/4/1 183/4/1
f 186/4/1 184/4/1 185/4/1
f 193/4/1 188/4/1 187/4/1
f 194/4/1 188/4/1 193/4/1
f 195/4/1 190/4/1 189/4/1
f 196/4/1 190/4/1 195/4/1
f 197/4/1 192/4/1 191/4/1
f 198/4/1 192/4/1 197/4/1
f 201/5/1 200/5/1 199/5/1
f 202/5/1 201/5/1 199/5/1
f 203/5/1 201/5/1 202/5/1
f 206/4/1 205/4/1 204/4/1
f 207/4/1 205/4/1 206/4/1
f 214/4/1 209/4/1 208/4/1
f 215/4/1 209/4/1 214/4/1
f 216/4/1 211/4/1 210/4/1
f 217/4/1 211/4/1 216/4/1
f 218/4/1 213/4/1 212/4/1
f 219/4/1 213/4/1 218/4/1
f 222/4/1 221/4/1 220/4/1
f 223/4/1 221/4/1 222/4/1
f 232/4/1 225/4/1 224/4/1
f 233/4/1 225/4/1 232/4/1
f 234/4/1 227/4/1 226/4/1
f 235/4/1 227/4/1 234/4/1
f 236/4/1 229/4/1 228/4/1
f 237/4/1 229/4/1 236/4/1
f 238/4/1 231/4/1 230/4/1
f 239/4/1 231/4/1 238/4/1
f 242/4/1 241/4/1 240/4/1
f 243/4/1 241/4/1 242/4/1
f 250/4/1 245/4/1 244/4/1
f 251/4/1 245/4/1 250/4/1
f 252/4/1 247/4/1 246/4/1
f 253/4/1 247/4/1 252/4/1
f 254/4/1 249/4/1 248/4/1
f 255/4/1 249/4/1 254/4/1
f 258/5/1 257/5/1 256/5/1
f 259/5/1 257/5/1 258/5/1
f 262/4/1 261/4/1 260/4/1
f 263/4/1 261/4/1 262/4/1
f 270/4/1 265/4/1 264/4/1
f 271/4/1 265/4/1 270/4/1
f 272/4/1 267/4/1 266/4/1
f 273/4/1 267/4/1 272/4/1
f 274/4/1 269/4/1 268/4/1
f 275/4/1 269/4/1 274/4/1
f 286/4/1 277/4/1 276/4/1
f 287/4/1 277/4/1 286/4/1
f 288/4/1 279/4/1 278/4/1
f 289/4/1 279/4/1 288/4/1
f 290/4/1 281/4/1 280/4/1
f 291/4/1 281/4/1 290/4/1
f 292/4/1 283/4/1 282/4/1
f 293/4/1 283/4/1 292/4/1
f 294/5/1 285/5/1 284/5/1
f 295/5/1 294/5/1 284/5/1
f 296/5/1 294/5/1 295/5/1
f 299/5/1 298/5/1 297/5/1
f 300/5/1 299/5/1 297/5/1
f 301/5/1 299/5/1 300/5/1
f 308/4/1 303/4/1 302/4/1
f 309/4/1 303/4/1 308/4/1
f 310/4/1 305/4/1 304/4/1
f 311/4/1 305/4/1 310/4/1
f 312/4/1 307/4/1 306/4/1
f 313/4/1 307/4/1 312/4/1
f 322/4/1 315/4/1 314/4/1
f 323/4/1 315/4/1 322/4/1
f 324/4/1 317/4/1 316/4/1
f 325/4/1 317/4/1 324/4/1
f 326/4/1 319/4/1 318/4/1
f 327/4/1 319/4/1 326/4/1
f 328/4/1 321/4/1 320/4/1
f 329/4/1 321/4/1 328/4/1
f 338/4/1 331/4/1 330/4/1
f 339/4/1 331/4/1 338/4/1
f 340/4/1 333/4/1 332/4/1
f 341/4/1 333/4/1 340/4/1
f 342/4/1 335/4/1 334/4/1
f 343/4/1 335/4/1 342/4/1
f 344/4/1 337/4/1 336/4/1
f 345/4/1 337/4/1 344/4/1
f 354/4/1 347/4/1 346/4/1
f 355/4/1 347/4/1 354/4/1
f 356/4/1 349/4/1 348/4/1
f 357/4/1 349/4/1 356/4/1
f 358/4/1 351/4/1 350/4/1
f 359/4/1 351/4/1 358/4/1
f 360/4/1 353/4/1 352/4/1
f 361/4/1 353/4/1 360/4/1
f 362/4/2 363/4/2 372/4/2
f 372/4/2 363/4/2 373/4/2
f 364/4/2 365/4/2 374/4/2
f 374/4/2 365/4/2 375/4/2
f 366/4/2 367/4/2 376/4/2
f 376/4/2 367/4/2 377/4/2
f 368/4/2 369/4/2 378/4/2
f 378/4/2 369/4/2 379/4/2
f 370/4/2 371/4/2 380/4/2
f 380/4/2 371/4/2 381/4/2
f 382/4/2 383/4/2 390/4/2
f 390/4/2 383/4/2 391/4/2
f 384/4/2 385/4/2 392/4/2
f 392/4/2 385/4/2 393/4/2
f 386/4/2 387/4/2 394/4/2
f 394/4/2 387/4/2 395/4/2
f 388/4/2 389/4/2 396/4/2
f 396/4/2 389/4/2 397/4/2
f 398/4/2 399/4/2 400/4/2
f 400/4/2 399/4/2 401/4/2
f 402/6/2 403/6/2 404/6/2
f 404/6/2 403/6/2 405/6/2
f 406/4/2 407/4/2 414/4/2
f 414/4/2 407/4/2 415/4/2
f 408/4/2 409/4/2 416/4/2
f 416/4/2 409/4/2 417/4/2
f 410/4/2 411/4/2 418/4/2
f 418/4/2 411/4/2 419/4/2
f 412/4/2 413/4/2 420/4/2
f 420/4/2 413/4/2 421/4/2
f 422/6/2 423/6/2 424/6/2
f 424/6/2 423/6/2 425/6/2
f 426/4/2 427/4/2 428/4/2
f 428/4/2 427/4/2 429/4/2
f 430/5/2 431/5/2 432/5/2
f 432/5/2 431/5/2 433/5/2
f 434/4/2 435/4/2 442/4/2
f 442/4/2 435/4/2 443/4/2
f 436/4/2 437/4/2 444/4/2
f 444/4/2 437/4/2 445/4/2
f 438/4/2 439/4/2 446/4/2
f 446/4/2 439/4/2 447/4/2
f 440/4/2 441/4/2 448/4/2
f 448/4/2 441/4/2 449/4/2
f 450/4/2 451/4/2 452/4/2
f 452/4/2 451/4/2 453/4/2
f 454/6/2 455/6/2 456/6/2
f 456/6/2 455/6/2 457/6/2
f 457/6/2 455/6/2 466/6/2
f 466/6/2 455/6/2 467/6/2
f 458/4/2 459/4/2 470/4/2
f 470/4/2 459/4/2 471/4/2
f 460/4/2 461/4/2 472/4/2
f 472/4/2 461/4/2 473/4/2
f 462/4/2 463/4/2 474/4/2
f 474/4/2 463/4/2 475/4/2
f 464/4/2 465/4/2 476/4/2
f 476/4/2 465/4/2 477/4/2
f 467/6/2 468/6/2 478/6/2
f 468/3/2 469/3/2 479/3/2
f 478/6/2 468/6/2 479/6/2
f 479/3/2 469/3/2 480/3/2
f 481/4/2 482/4/2 483/4/2
f 483/4/2 482/4/2 484/4/2
f 485/5/2 486/5/2 487/5/2
f 485/5/2 487/5/2 488/5/2
f 488/5/2 487/5/2 489/5/2
f 490/4/2 491/4/2 496/4/2
f 496/4/2 491/4/2 497/4/2
f 492/4/2 493/4/2 498/4/2
f 498/4/2 493/4/2 499/4/2
f 494/4/2 495/4/2 500/4/2
f 500/4/2 495/4/2 501/4/2
f 502/4/2 503/4/2 504/4/2
f 504/4/2 503/4/2 505/4/2
f 506/4/2 507/4/2 512/4/2
f 512/4/2 507/4/2 513/4/2
f 508/4/2 509/4/2 514/4/2
f 514/4/2 509/4/2 515/4/2
f 510/4/2 511/4/2 516/4/2
f 516/4/2 511/4/2 517/4/2
f 518/4/2 519/4/2 520/4/2
f 520/4/2 519/4/2 521/4/2
f 522/5/2 523/5/2 524/5/2
f 524/5/2 523/5/2 525/5/2
f 526/4/2 527/4/2 532/4/2
f 532/4/2 527/4/2 533/4/2
f 528/4/2 529/4/2 534/4/2
f 534/4/2 529/4/2 535/4/2
f 530/4/2 531/4/2 536/4/2
f 536/4/2 531/4/2 537/4/2
f 538/4/2 539/4/2 540/4/2
f 540/4/2 539/4/2 541/4/2
f 542/4/2 543/4/2 550/4/2
f 550/4/2 543/4/2 551/4/2
f 544/4/2 545/4/2 552/4/2
f 552/4/2 545/4/2 553/4/2
f 546/4/2 547/4/2 554/4/2
f 554/4/2 547/4/2 555/4/2
f 548/4/2 549/4/2 556/4/2
f 556/4/2 549/4/2 557/4/2
f 558/5/2 559/5/2 560/5/2
f 560/5/2 559/5/2 561/5/2
f 562/4/2 563/4/2 564/4/2
f 564/4/2 563/4/2 565/4/2
f 566/4/2 567/4/2 576/4/2
f 576/4/2 567/4/2 577/4/2
f 568/4/2 569/4/2 578/4/2
f 578/4/2 569/4/2 579/4/2
f 570/4/2 571/4/2 580/4/2
f 580/4/2 571/4/2 581/4/2
f 572/4/2 573/4/2 582/4/2
f 582/4/2 573/4/2 583/4/2
f 574/5/2 575/5/2 584/5/2
f 574/5/2 584/5/2 585/5/2
f 585/5/2 584/5/2 586/5/2
f 587/5/2 588/5/2 589/5/2
f 587/5/2 589/5/2 590/5/2
f 590/5/2 589/5/2 591/5/2
f 592/5/2 593/5/2 594/5/2
f 594/5/2 593/5/2 595/5/2
f 596/4/2 597/4/2 598/4/2
f 598/4/2 597/4/2 599/4/2
f 600/5/2 601/5/2 602/5/2
f 602/5/2 601/5/2 603/5/2
f 604/4/2 605/4/2 608/4/2
f 608/4/2 605/4/2 609/4/2
f 606/4/2 607/4/2 610/4/2
f 610/4/2 607/4/2 611/4/2
f 612/5/2 613/5/2 614/5/2
f 614/5/2 613/5/2 615/5/2
f 616/4/2 617/4/2 622/4/2
f 622/4/2 617/4/2 623/4/2
f 618/4/2 619/4/2 624/4/2
f 624/4/2 619/4/2 625/4/2
f 620/4/2 621/4/2 626/4/2
f 626/4/2 621/4/2 627/4/2
f 628/4/2 629/4/2 634/4/2
f 634/4/2 629/4/2 635/4/2
f 630/4/2 631/4/2 636/4/2
f 636/4/2 631/4/2 637/4/2
f 632/4/2 633/4/2 638/4/2
f 638/4/2 633/4/2 639/4/2
f 642/4/2 643/4/2 650/4/2
f 650/4/2 643/4/2 651/4/2
f 644/4/2 645/4/2 652/4/2
f 652/4/2 645/4/2 653/4/2
f 646/4/2 647/4/2 654/4/2
f 654/4/2 647/4/2 655/4/2
f 648/4/2 649/4/2 656/4/2
f 656/4/2 649/4/2 657/4/2
f 640/5/2 641/5/2 658/5/2
f 658/5/2 641/5/2 659/5/2
f 660/4/2 661/4/2 666/4/2
f 666/4/2 661/4/2 667/4/2
f 662/4/2 663/4/2 668/4/2
f 668/4/2 663/4/2 669/4/2
f 664/4/2 665/4/2 670/4/2
f 670/4/2 665/4/2 671/4/2
f 672/4/2 673/4/2 680/4/2
f 680/4/2 673/4/2 681/4/2
f 674/4/2 675/4/2 682/4/2
f 682/4/2 675/4/2 683/4/2
f 676/4/2 677/4/2 684/4/2
f 684/4/2 677/4/2 685/4/2
f 678/4/2 679/4/2 686/4/2
f 686/4/2 679/4/2 687/4/2
f 688/4/2 689/4/2 696/4/2
f 696/4/2 689/4/2 697/4/2
f 690/4/2 691/4/2 698/4/2
f 698/4/2 691/4/2 699/4/2
f 692/4/2 693/4/2 700/4/2
f 700/4/2 693/4/2 701/4/2
f 694/4/2 695/4/2 702/4/2
f 702/4/2 695/4/2 703/4/2
f 704/4/2 705/4/2 712/4/2
f 712/4/2 705/4/2 713/4/2
f 706/4/2 707/4/2 714/4/2
f 714/4/2 707/4/2 715/4/2
f 708/4/2 709/4/2 716/4/2
f 716/4/2 709/4/2 717/4/2
f 710/4/2 711/4/2 718/4/2
f 718/4/2 711/4/2 719/4/2
f 720/5/2 721/5/2 722/5/2
f 722/5/2 721/5/2 723/5/2
f 726/5/3 725/5/3 724/5/3
f 727/5/3 725/5/3 726/5/3
f 730/4/3 729/4/3 728/4/3
f 731/4/3 729/4/3 730/4/3
f 734/4/3 733/4/3 732/4/3
f 735/4/3 733/4/3 734/4/3
f 738/4/3 737/4/3 736/4/3
f 739/4/3 737/4/3 738/4/3
f 742/4/3 741/4/3 740/4/3
f 743/4/3 741/4/3 742/4/3
f 746/4/3 745/4/3 744/4/3
f 747/4/3 745/4/3 746/4/3
f 750/4/3 749/4/3 748/4/3
f 751/4/3 749/4/3 750/4/3
f 754/4/3 753/4/3 752/4/3
f 755/4/3 753/4/3 754/4/3
f 758/4/3 757/4/3 756/4/3
f 759/4/3 757/4/3 758/4/3
f 762/4/3 761/4/3 760/4/3
f 763/4/3 761/4/3 762/4/3
f 766/4/3 765/4/3 764/4/3
f 767/4/3 765/4/3 766/4/3
f 770/4/3 769/4/3 768/4/3
f 771/4/3 769/4/3 770/4/3
f 774/4/3 773/4/3 772/4/3
f 775/4/3 773/4/3 774/4/3
f 778/4/3 777/4/3 776/4/3
f 779/4/3 777/4/3 778/4/3
f 782/4/3 781/4/3 780/4/3
f 783/4/3 781/4/3 782/4/3
f 786/4/3 785/4/3 784/4/3
f 787/4/3 785/4/3 786/4/3
f 790/4/3 789/4/3 788/4/3
f 791/4/3 789/4/3 790/4/3
f 794/4/3 793/4/3 792/4/3
f 795/4/3 793/4/3 794/4/3
f 798/4/3 797/4/3 796/4/3
f 799/4/3 797/4/3 798/4/3
f 802/4/3 801/4/3 800/4/3
f 803/4/3 801/4/3 802/4/3
f 806/4/3 805/4/3 804/4/3
f 807/4/3 805/4/3 806/4/3
f 810/4/3 809/4/3 808/4/3
f 811/4/3 809/4/3 810/4/3
f 814/4/3 813/4/3 812/4/3
f 815/4/3 813/4/3 814/4/3
f 818/4/3 817/4/3 816/4/3
f 819/4/3 817/4/3 818/4/3
f 822/4/3 821/4/3 820/4/3
f 823/4/3 821/4/3 822/4/3
f 826/4/3 825/4/3 824/4/3
f 827/4/3 825/4/3 826/4/3
f 830/4/3 829/4/3 828/4/3
f 831/4/3 829/4/3 830/4/3
f 834/4/3 833/4/3 832/4/3
f 835/4/3 833/4/3 834/4/3
f 838/4/3 837/4/3 836/4/3
f 839/4/3 837/4/3 838/4/3
f 842/4/3 841/4/3 840/4/3
f 843/4/3 841/4/3 842/4/3
f 846/4/3 845/4/3 844/4/3
f 847/4/3 845/4/3 846/4/3
f 850/4/3 849/4/3 848/4/3
f 851/4/3 849/4/3 850/4/3
f 854/4/3 853/4/3 852/4/3
f 855/4/3 853/4/3 854/4/3
f 858/4/3 857/4/3 856/4/3
f 859/4/3 857/4/3 858/4/3
f 862/4/3 861/4/3 860/4/3
f 863/4/3 861/4/3 862/4/3
f 866/4/3 865/4/3 864/4/3
f 867/4/3 865/4/3 866/4/3
f 870/4/3 869/4/3 868/4/3
f 871/4/3 869/4/3 870/4/3
f 874/4/3 873/4/3 872/4/3
f 875/4/3 873/4/3 874/4/3
f 878/4/3 877/4/3 876/4/3
f 879/4/3 877/4/3 878/4/3
f 882/4/3 881/4/3 880/4/3
f 883/4/3 881/4/3 882/4/3
f 886/4/3 885/4/3 884/4/3
f 887/4/3 885/4/3 886/4/3
f 890/4/3 889/4/3 888/4/3
f 891/4/3 889/4/3 890/4/3
f 894/4/3 893/4/3 892/4/3
f 895/4/3 893/4/3 894/4/3
f 898/4/3 897/4/3 896/4/3
f 899/4/3 897/4/3 898/4/3
f 902/4/3 901/4/3 900/4/3
f 903/4/3 901/4/3 902/4/3
f 906/4/3 905/4/3 904/4/3
f 907/4/3 905/4/3 906/4/3
f 910/4/3 909/4/3 908/4/3
f 911/4/3 909/4/3 910/4/3
f 914/4/3 913/4/3 912/4/3
f 915/4/3 913/4/3 914/4/3
f 918/4/3 917/4/3 916/4/3
f 919/4/3 917/4/3 918/4/3
f 922/4/3 921/4/3 920/4/3
f 923/4/3 921/4/3 922/4/3
f 926/4/3 925/4/3 924/4/3
f 927/4/3 925/4/3 926/4/3
f 930/4/3 929/4/3 928/4/3
f 931/4/3 929/4/3 930/4/3
f 934/4/3 933/4/3 932/4/3
f 935/4/3 933/4/3 934/4/3
f 938/4/3 937/4/3 936/4/3
f 939/4/3 937/4/3 938/4/3
f 942/4/3 941/4/3 940/4/3
f 943/4/3 941/4/3 942/4/3
f 946/4/3 945/4/3 944/4/3
f 947/4/3 945/4/3 946/4/3
f 950/4/3 949/4/3 948/4/3
f 951/4/3 949/4/3 950/4/3
f 954/4/3 953/4/3 952/4/3
f 955/4/3 953/4/3 954/4/3
f 958/4/3 957/4/3 956/4/3
f 959/4/3 957/4/3 958/4/3
f 962/4/3 961/4/3 960/4/3
f 963/4/3 961/4/3 962/4/3
f 966/4/3 965/4/3 964/4/3
f 967/4/3 965/4/3 966/4/3
f 970/4/3 969/4/3 968/4/3
f 971/4/3 969/4/3 970/4/3
f 974/4/3 973/4/3 972/4/3
f 975/4/3 973/4/3 974/4/3
f 978/4/3 977/4/3 976/4/3
f 979/4/3 977/4/3 978/4/3
f 982/4/3 981/4/3 980/4/3
f 983/4/3 981/4/3 982/4/3
f 986/4/3 985/4/3 984/4/3
f 987/4/3 985/4/3 986/4/3
f 990/4/3 989/4/3 988/4/3
f 991/4/3 989/4/3 990/4/3
f 994/4/3 993/4/3 992/4/3
f 995/4/3 993/4/3 994/4/3
f 998/4/3 997/4/3 996/4/3
f 999/4/3 997/4/3 998/4/3
f 1002/4/3 1001/4/3 1000/4/3
f 1003/4/3 1001/4/3 1002/4/3
f 1006/4/3 1005/4/3 1004/4/3
f 1007/4/3 1005/4/3 1006/4/3
f 1010/4/3 1009/4/3 1008/4/3
f 1011/4/3 1009/4/3 1010/4/3
f 1014/4/3 1013/4/3 1012/4/3
f 1015/4/3 1013/4/3 1014/4/3
f 1018/4/3 1017/4/3 1016/4/3
f 1019/4/3 1017/4/3 1018/4/3
f 1022/4/3 1021/4/3 1020/4/3
f 1023/4/3 1021/4/3 1022/4/3
f 1026/6/3 1025/6/3 1024/6/3
f 1027/6/3 1025/6/3 1026/6/3
f 1030/6/3 1029/6/3 1028/6/3
f 1031/6/3 1029/6/3 1030/6/3
f 1034/6/3 1033/6/3 1032/6/3
f 1035/6/3 1033/6/3 1034/6/3
f 1038/6/3 1037/6/3 1036/6/3
f 1039/6/3 1037/6/3 1038/6/3
f 1042/5/3 1041/5/3 1040/5/3
f 1043/5/3 1041/5/3 1042/5/3
f 1044/5/3 1042/5/3 1040/5/3
f 1044/1/3 1043/1/3 1042/1/3
f 1045/5/3 1041/5/3 1043/5/3
f 1045/1/3 1043/1/3 1044/1/3
f 1046/5/3 1044/5/3 1040/5/3
f 1046/5/3 1045/5/3 1044/5/3
f 1047/5/3 1041/5/3 1045/5/3
f 1047/5/3 1045/5/3 1046/5/3
f 1048/5/3 1046/5/3 1040/5/3
f 1048/2/3 1047/2/3 1046/2/3
f 1049/5/3 1041/5/3 1047/5/3
f 1049/2/3 1047/2/3 1048/2/3
f 1052/5/3 1051/5/3 1050/5/3
f 1053/5/3 1051/5/3 1052/5/3
f 1054/5/3 1048/5/3 1040/5/3
f 1054/5/3 1049/5/3 1048/5/3
f 1055/5/3 1049/5/3 1054/5/3
f 1056/5/3 1054/5/3 1040/5/3
f 1057/5/3 1049/5/3 1055/5/3
f 1058/5/3 1049/5/3 1057/5/3
f 1058/5/3 1057/5/3 1056/5/3
f 1059/5/3 1049/5/3 1058/5/3
f 1060/5/3 1058/5/3 1056/5/3
f 1061/5/3 1049/5/3 1059/5/3
f 1062/5/3 1056/5/3 1040/5/3
f 1062/5/3 1061/5/3 1060/5/3
f 1062/5/3 1060/5/3 1056/5/3
f 1063/5/3 1061/5/3 1062/5/3
f 1064/5/3 1049/5/3 1061/5/3
f 1064/5/3 1061/5/3 1063/5/3
f 1065/5/3 1041/5/3 1049/5/3
f 1065/5/3 1049/5/3 1064/5/3
f 1066/5/3 1052/5/3 1050/5/3
f 1067/5/3 1051/5/3 1053/5/3
f 1068/5/3 1066/5/3 1050/5/3
f 1068/5/3 1067/5/3 1066/5/3
f 1069/5/3 1051/5/3 1067/5/3
f 1069/5/3 1067/5/3 1068/5/3
f 1070/5/3 1062/5/3 1040/5/3
f 1071/5/3 1064/5/3 1063/5/3
f 1072/5/3 1064/5/3 1071/5/3
f 1073/5/3 1041/5/3 1065/5/3
f 1074/5/3 1072/5/3 1071/5/3
f 1074/5/3 1073/5/3 1072/5/3
f 1074/5/3 1070/5/3 1040/5/3
f 1074/5/3 1071/5/3 1070/5/3
f 1075/5/3 1041/5/3 1073/5/3
f 1075/5/3 1073/5/3 1074/5/3
f 1078/7/3 1077/7/3 1076/7/3
f 1079/7/3 1077/7/3 1078/7/3
f 1080/7/3 1078/7/3 1076/7/3
f 1081/7/3 1078/7/3 1080/7/3
f 1082/7/3 1078/7/3 1081/7/3
f 1083/7/3 1078/7/3 1082/7/3
f 1084/7/3 1078/7/3 1083/7/3
f 1085/7/3 1078/7/3 1084/7/3
f 1086/7/3 1078/7/3 1085/7/3
f 1087/7/3 1078/7/3 1086/7/3
f 1088/7/3 1084/7/3 1083/7/3
f 1088/3/3 1085/3/3 1084/3/3
f 1089/7/3 1086/7/3 1085/7/3
f 1089/3/3 1085/3/3 1088/3/3
f 1090/3/3 1087/3/3 1086/3/3
f 1090/7/3 1086/7/3 1089/7/3
f 1091/7/3 1078/7/3 1087/7/3
f 1091/3/3 1087/3/3 1090/3/3
f 1092/7/3 1090/7/3 1089/7/3
f 1092/7/3 1089/7/3 1088/7/3
f 1092/7/3 1091/7/3 1090/7/3
f 1092/7/3 1088/7/3 1083/7/3
f 1093/7/3 1091/7/3 1092/7/3
f 1094/7/3 1091/7/3 1093/7/3
f 1095/7/3 1078/7/3 1091/7/3
f 1095/7/3 1091/7/3 1094/7/3
f 1096/7/3 1082/7/3 1081/7/3
f 1096/3/3 1083/3/3 1082/3/3
f 1097/7/3 1092/7/3 1083/7/3
f 1097/3/3 1083/3/3 1096/3/3
f 1098/7/3 1080/7/3 1076/7/3
f 1098/3/3 1081/3/3 1080/3/3
f 1099/7/3 1097/7/3 1096/7/3
f 1099/3/3 1081/3/3 1098/3/3
f 1099/7/3 1096/7/3 1081/7/3
f 1103/7/3 1099/7/3 1098/7/3
f 1103/7/3 1097/7/3 1099/7/3
f 1104/7/3 1092/7/3 1097/7/3
f 1104/7/3 1097/7/3 1103/7/3
f 1105/3/3 1079/3/3 1078/3/3
f 1105/7/3 1078/7/3 1095/7/3
f 1106/7/3 1077/7/3 1079/7/3
f 1106/3/3 1079/3/3 1105/3/3
f 1107/7/3 1103/7/3 1098/7/3
f 1107/7/3 1098/7/3 1076/7/3
f 1108/7/3 1103/7/3 1107/7/3
f 1109/3/3 1095/3/3 1094/3/3
f 1109/7/3 1094/7/3 1093/7/3
f 1110/7/3 1105/7/3 1095/7/3
f 1110/3/3 1095/3/3 1109/3/3
f 1110/7/3 1106/7/3 1105/7/3
f 1111/7/3 1106/7/3 1110/7/3
f 1112/7/3 1077/7/3 1106/7/3
f 1112/7/3 1106/7/3 1111/7/3
f 1113/7/3 1107/7/3 1076/7/3
f 1113/3/3 1108/3/3 1107/3/3
f 1114/7/3 1103/7/3 1108/7/3
f 1114/3/3 1108/3/3 1113/3/3
f 1115/3/3 1104/3/3 1103/3/3
f 1115/7/3 1103/7/3 1114/7/3
f 1115/7/3 1114/7/3 1113/7/3
f 1116/7/3 1092/7/3 1104/7/3
f 1116/3/3 1104/3/3 1115/3/3
f 1117/3/3 1093/3/3 1092/3/3
f 1117/7/3 1092/7/3 1116/7/3
f 1118/7/3 1109/7/3 1093/7/3
f 1118/3/3 1093/3/3 1117/3/3
f 1118/7/3 1111/7/3 1110/7/3
f 1118/7/3 1110/7/3 1109/7/3
f 1119/7/3 1111/7/3 1118/7/3
f 1120/7/3 1111/7/3 1119/7/3
f 1121/3/3 1112/3/3 1111/3/3
f 1121/7/3 1111/7/3 1120/7/3
f 1122/7/3 1077/7/3 1112/7/3
f 1122/3/3 1112/3/3 1121/3/3
f 1123/7/3 1117/7/3 1116/7/3
f 1123/7/3 1115/7/3 1113/7/3
f 1123/7/3 1113/7/3 1076/7/3
f 1123/7/3 1119/7/3 1118/7/3
f 1123/7/3 1118/7/3 1117/7/3
f 1123/7/3 1116/7/3 1115/7/3
f 1124/7/3 1119/7/3 1123/7/3
f 1125/7/3 1119/7/3 1124/7/3
f 1126/7/3 1119/7/3 1125/7/3
f 1127/7/3 1123/7/3 1076/7/3
f 1127/3/3 1124/3/3 1123/3/3
f 1128/7/3 1125/7/3 1124/7/3
f 1128/3/3 1124/3/3 1127/3/3
f 1129/7/3 1125/7/3 1128/7/3
f 1130/7/3 1125/7/3 1129/7/3
f 1131/3/3 1126/3/3 1125/3/3
f 1131/7/3 1125/7/3 1130/7/3
f 1132/7/3 1119/7/3 1126/7/3
f 1132/3/3 1126/3/3 1131/3/3
f 1133/3/3 1120/3/3 1119/3/3
f 1133/7/3 1119/7/3 1132/7/3
f 1134/7/3 1122/7/3 1121/7/3
f 1134/3/3 1120/3/3 1133/3/3
f 1134/7/3 1121/7/3 1120/7/3
f 1135/7/3 1133/7/3 1132/7/3
f 1135/7/3 1132/7/3 1131/7/3
f 1135/7/3 1134/7/3 1133/7/3
f 1135/7/3 1131/7/3 1130/7/3
f 1136/7/3 1134/7/3 1135/7/3
f 1137/7/3 1122/7/3 1134/7/3
f 1137/7/3 1134/7/3 1136/7/3
f 1138/7/3 1077/7/3 1122/7/3
f 1138/7/3 1122/7/3 1137/7/3
f 1139/8/3 1101/8/3 1100/8/3
f 1140/4/3 1102/4/3 1101/4/3
f 1140/8/3 1101/8/3 1139/8/3
f 1141/4/3 1102/4/3 1140/4/3
f 1142/7/3 1129/7/3 1128/7/3
f 1142/7/3 1128/7/3 1127/7/3
f 1142/7/3 1127/7/3 1076/7/3
f 1143/7/3 1129/7/3 1142/7/3
f 1144/7/3 1137/7/3 1136/7/3
f 1145/7/3 1137/7/3 1144/7/3
f 1146/7/3 1142/7/3 1076/7/3
f 1146/3/3 1143/3/3 1142/3/3
f 1147/7/3 1129/7/3 1143/7/3
f 1147/3/3 1143/3/3 1146/3/3
f 1148/3/3 1130/3/3 1129/3/3
f 1148/7/3 1129/7/3 1147/7/3
f 1149/7/3 1135/7/3 1130/7/3
f 1149/3/3 1130/3/3 1148/3/3
f 1150/3/3 1145/3/3 1144/3/3
f 1150/7/3 1144/7/3 1136/7/3
f 1151/7/3 1137/7/3 1145/7/3
f 1151/3/3 1145/3/3 1150/3/3
f 1152/7/3 1146/7/3 1076/7/3
f 1152/7/3 1147/7/3 1146/7/3
f 1152/7/3 1148/7/3 1147/7/3
f 1152/7/3 1149/7/3 1148/7/3
f 1153/7/3 1149/7/3 1152/7/3
f 1154/7/3 1152/7/3 1076/7/3
f 1154/3/3 1153/3/3 1152/3/3
f 1155/7/3 1149/7/3 1153/7/3
f 1155/3/3 1153/3/3 1154/3/3
f 1156/7/3 1149/7/3 1155/7/3
f 1157/7/3 1135/7/3 1149/7/3
f 1157/7/3 1149/7/3 1156/7/3
f 1158/7/3 1150/7/3 1136/7/3
f 1158/7/3 1151/7/3 1150/7/3
f 1159/7/3 1137/7/3 1151/7/3
f 1159/7/3 1151/7/3 1158/7/3
f 1160/7/3 1156/7/3 1155/7/3
f 1160/3/3 1157/3/3 1156/3/3
f 1160/7/3 1155/7/3 1154/7/3
f 1161/7/3 1135/7/3 1157/7/3
f 1161/3/3 1157/3/3 1160/3/3
f 1162/7/3 1158/7/3 1136/7/3
f 1162/3/3 1159/3/3 1158/3/3
f 1163/7/3 1137/7/3 1159/7/3
f 1163/3/3 1159/3/3 1162/3/3
f 1164/7/3 1160/7/3 1154/7/3
f 1164/7/3 1161/7/3 1160/7/3
f 1165/7/3 1135/7/3 1161/7/3
f 1165/7/3 1161/7/3 1164/7/3
f 1166/7/3 1162/7/3 1136/7/3
f 1166/7/3 1163/7/3 1162/7/3
f 1167/7/3 1137/7/3 1163/7/3
f 1167/7/3 1163/7/3 1166/7/3
f 1168/3/3 1136/3/3 1135/3/3
f 1168/7/3 1135/7/3 1165/7/3
f 1169/7/3 1166/7/3 1136/7/3
f 1169/3/3 1136/3/3 1168/3/3
f 1170/7/3 1164/7/3 1154/7/3
f 1170/3/3 1165/3/3 1164/3/3
f 1171/7/3 1168/7/3 1165/7/3
f 1171/3/3 1165/3/3 1170/3/3
f 1171/7/3 1169/7/3 1168/7/3
f 1172/7/3 1169/7/3 1171/7/3
f 1173/7/3 1166/7/3 1169/7/3
f 1173/7/3 1169/7/3 1172/7/3
f 1174/7/3 1137/7/3 1167/7/3
f 1174/3/3 1138/3/3 1137/3/3
f 1175/7/3 1077/7/3 1138/7/3
f 1175/3/3 1138/3/3 1174/3/3
f 1176/7/3 1172/7/3 1171/7/3
f 1176/7/3 1170/7/3 1154/7/3
f 1176/7/3 1171/7/3 1170/7/3
f 1177/7/3 1172/7/3 1176/7/3
f 1178/7/3 1166/7/3 1173/7/3
f 1178/3/3 1167/3/3 1166/3/3
f 1179/7/3 1174/7/3 1167/7/3
f 1179/3/3 1167/3/3 1178/3/3
f 1179/7/3 1175/7/3 1174/7/3
f 1180/7/3 1175/7/3 1179/7/3
f 1181/7/3 1077/7/3 1175/7/3
f 1181/7/3 1175/7/3 1180/7/3
f 1182/7/3 1176/7/3 1154/7/3
f 1182/3/3 1177/3/3 1176/3/3
f 1183/7/3 1172/7/3 1177/7/3
f 1183/3/3 1177/3/3 1182/3/3
f 1184/3/3 1173/3/3 1172/3/3
f 1184/7/3 1172/7/3 1183/7/3
f 1185/7/3 1180/7/3 1179/7/3
f 1185/3/3 1173/3/3 1184/3/3
f 1185/7/3 1178/7/3 1173/7/3
f 1185/7/3 1179/7/3 1178/7/3
f 1186/3/3 1181/3/3 1180/3/3
f 1186/7/3 1180/7/3 1185/7/3
f 1187/7/3 1077/7/3 1181/7/3
f 1187/3/3 1181/3/3 1186/3/3
f 1194/7/3 1184/7/3 1183/7/3
f 1194/7/3 1182/7/3 1154/7/3
f 1194/7/3 1154/7/3 1076/7/3
f 1194/7/3 1186/7/3 1185/7/3
f 1194/7/3 1185/7/3 1184/7/3
f 1194/7/3 1183/7/3 1182/7/3
f 1194/7/3 1187/7/3 1186/7/3
f 1195/7/3 1077/7/3 1187/7/3
f 1195/7/3 1187/7/3 1194/7/3
f 1196/8/3 1189/8/3 1188/8/3
f 1197/4/3 1190/4/3 1189/4/3
f 1197/8/3 1189/8/3 1196/8/3
f 1198/4/3 1190/4/3 1197/4/3
f 1199/8/3 1192/8/3 1191/8/3
f 1200/4/3 1193/4/3 1192/4/3
f 1200/8/3 1192/8/3 1199/8/3
f 1201/4/3 1193/4/3 1200/4/3
f 1204/5/3 1203/5/3 1202/5/3
f 1205/5/3 1203/5/3 1204/5/3
f 1208/5/3 1207/5/3 1206/5/3
f 1209/5/3 1207/5/3 1208/5/3
f 1210/4/4 1211/4/4 1212/4/4
f 1212/4/4 1211/4/4 1213/4/4
f 1214/4/4 1215/4/4 1216/4/4
f 1216/4/4 1215/4/4 1217/4/4
f 1218/4/4 1219/4/4 1220/4/4
f 1220/4/4 1219/4/4 1221/4/4
f 1222/4/4 1223/4/4 1224/4/4
f 1224/4/4 1223/4/4 1225/4/4
f 1226/4/4 1227/4/4 1228/4/4
f 1228/4/4 1227/4/4 1229/4/4
f 1230/4/4 1231/4/4 1232/4/4
f 1232/4/4 1231/4/4 1233/4/4
f 1234/4/4 1235/4/4 1236/4/4
f 1236/4/4 1235/4/4 1237/4/4
f 1238/4/4 1239/4/4 1240/4/4
f 1240/4/4 1239/4/4 1241/4/4
f 1242/4/4 1243/4/4 1244/4/4
f 1244/4/4 1243/4/4 1245/4/4
f 1246/4/4 1247/4/4 1248/4/4
f 1248/4/4 1247/4/4 1249/4/4
f 1250/4/4 1251/4/4 1252/4/4
f 1252/4/4 1251/4/4 1253/4/4
f 1254/4/4 1255/4/4 1256/4/4
f 1256/4/4 1255/4/4 1257/4/4
f 1258/4/4 1259/4/4 1260/4/4
f 1260/4/4 1259/4/4 1261/4/4
f 1262/4/4 1263/4/4 1264/4/4
f 1264/4/4 1263/4/4 1265/4/4
f 1266/4/4 1267/4/4 1268/4/4
f 1268/4/4 1267/4/4 1269/4/4
f 1270/4/4 1271/4/4 1272/4/4
f 1272/4/4 1271/4/4 1273/4/4
f 1274/4/4 1275/4/4 1276/4/4
f 1276/4/4 1275/4/4 1277/4/4
f 1278/4/4 1279/4/4 1280/4/4
f 1280/4/4 1279/4/4 1281/4/4
f 1282/4/4 1283/4/4 1284/4/4
f 1284/4/4 1283/4/4 1285/4/4
f 1286/4/4 1287/4/4 1288/4/4
f 1288/4/4 1287/4/4 1289/4/4
f 1290/4/4 1291/4/4 1292/4/4
f 1292/4/4 1291/4/4 1293/4/4
f 1294/4/4 1295/4/4 1296/4/4
f 1296/4/4 1295/4/4 1297/4/4
f 1298/4/4 1299/4/4 1300/4/4
f 1300/4/4 1299/4/4 1301/4/4
f 1302/4/4 1303/4/4 1304/4/4
f 1304/4/4 1303/4/4 1305/4/4
f 1306/4/4 1307/4/4 1308/4/4
f 1308/4/4 1307/4/4 1309/4/4
f 1310/4/4 1311/4/4 1312/4/4
f 1312/4/4 1311/4/4 1313/4/4
f 1314/4/4 1315/4/4 1316/4/4
f 1316/4/4 1315/4/4 1317/4/4
f 1318/4/4 1319/4/4 1320/4/4
f 1320/4/4 1319/4/4 1321/4/4
f 1322/4/4 1323/4/4 1324/4/4
f 1324/4/4 1323/4/4 1325/4/4
f 1326/4/4 1327/4/4 1328/4/4
f 1328/4/4 1327/4/4 1329/4/4
f 1330/4/4 1331/4/4 1332/4/4
f 1332/4/4 1331/4/4 1333/4/4
f 1334/4/4 1335/4/4 1336/4/4
f 1336/4/4 1335/4/4 1337/4/4
f 1338/4/4 1339/4/4 1340/4/4
f 1340/4/4 1339/4/4 1341/4/4
f 1342/4/4 1343/4/4 1344/4/4
f 1344/4/4 1343/4/4 1345/4/4
f 1346/4/4 1347/4/4 1348/4/4
f 1348/4/4 1347/4/4 1349/4/4
f 1350/4/4 1351/4/4 1352/4/4
f 1352/4/4 1351/4/4 1353/4/4
f 1354/4/4 1355/4/4 1356/4/4
f 1356/4/4 1355/4/4 1357/4/4
f 1358/4/4 1359/4/4 1360/4/4
f 1360/4/4 1359/4/4 1361/4/4
f 1362/4/4 1363/4/4 1364/4/4
f 1364/4/4 1363/4/4 1365/4/4
f 1366/4/4 1367/4/4 1368/4/4
f 1368/4/4 1367/4/4 1369/4/4
f 1370/4/4 1371/4/4 1372/4/4
f 1372/4/4 1371/4/4 1373/4/4
f 1374/4/4 1375/4/4 1376/4/4
f 1376/4/4 1375/4/4 1377/4/4
f 1378/4/4 1379/4/4 1380/4/4
f 1380/4/4 1379/4/4 1381/4/4
f 1382/4/4 1383/4/4 1384/4/4
f 1384/4/4 1383/4/4 1385/4/4
f 1386/4/4 1387/4/4 1388/4/4
f 1388/4/4 1387/4/4 1389/4/4
f 1390/4/4 1391/4/4 1392/4/4
f 1392/4/4 1391/4/4 1393/4/4
f 1394/4/4 1395/4/4 1396/4/4
f 1396/4/4 1395/4/4 1397/4/4
f 1398/4/4 1399/4/4 1400/4/4
f 1400/4/4 1399/4/4 1401/4/4
f 1402/4/4 1403/4/4 1404/4/4
f 1404/4/4 1403/4/4 1405/4/4
f 1406/4/4 1407/4/4 1408/4/4
f 1408/4/4 1407/4/4 1409/4/4
f 1410/4/4 1411/4/4 1412/4/4
f 1412/4/4 1411/4/4 1413/4/4
f 1414/4/4 1415/4/4 1416/4/4
f 1416/4/4 1415/4/4 1417/4/4
f 1418/4/4 1419/4/4 1420/4/4
f 1420/4/4 1419/4/4 1421/4/4
f 1422/4/4 1423/4/4 1424/4/4
f 1424/4/4 1423/4/4 1425/4/4
f 1426/4/4 1427/4/4 1428/4/4
f 1428/4/4 1427/4/4 1429/4/4
f 1430/4/4 1431/4/4 1432/4/4
f 1432/4/4 1431/4/4 1433/4/4
f 1434/4/4 1435/4/4 1436/4/4
f 1436/4/4 1435/4/4 1437/4/4
f 1438/4/4 1439/4/4 1440/4/4
f 1440/4/4 1439/4/4 1441/4/4
f 1442/4/4 1443/4/4 1444/4/4
f 1444/4/4 1443/4/4 1445/4/4
f 1446/4/4 1447/4/4 1448/4/4
f 1448/4/4 1447/4/4 1449/4/4
f 1450/4/4 1451/4/4 1452/4/4
f 1452/4/4 1451/4/4 1453/4/4
f 1454/4/4 1455/4/4 1456/4/4
f 1456/4/4 1455/4/4 1457/4/4
f 1458/4/4 1459/4/4 1460/4/4
f 1460/4/4 1459/4/4 1461/4/4
f 1462/4/4 1463/4/4 1464/4/4
f 1464/4/4 1463/4/4 1465/4/4
f 1466/4/4 1467/4/4 1468/4/4
f 1468/4/4 1467/4/4 1469/4/4
f 1470/4/4 1471/4/4 1472/4/4
f 1472/4/4 1471/4/4 1473/4/4
f 1474/4/4 1475/4/4 1476/4/4
f 1476/4/4 1475/4/4 1477/4/4
f 1478/4/4 1479/4/4 1480/4/4
f 1480/4/4 1479/4/4 1481/4/4
f 1482/4/4 1483/4/4 1484/4/4
f 1484/4/4 1483/4/4 1485/4/4
f 1486/4/4 1487/4/4 1488/4/4
f 1488/4/4 1487/4/4 1489/4/4
f 1490/4/4 1491/4/4 1492/4/4
f 1492/4/4 1491/4/4 1493/4/4
f 1494/4/4 1495/4/4 1496/4/4
f 1496/4/4 1495/4/4 1497/4/4
f 1498/4/4 1499/4/4 1500/4/4
f 1500/4/4 1499/4/4 1501/4/4
f 1502/5/4 1503/5/4 1504/5/4
f 1504/5/4 1503/5/4 1505/5/4
f 1505/5/4 1503/5/4 1507/5/4
f 1506/5/4 1507/5/4 1508/5/4
f 1507/5/4 1503/5/4 1509/5/4
f 1508/5/4 1507/5/4 1509/5/4
f 1510/6/4 1511/6/4 1512/6/4
f 1512/6/4 1511/6/4 1513/6/4
f 1514/6/4 1515/6/4 1516/6/4
f 1516/6/4 1515/6/4 1517/6/4
f 1518/6/4 1519/6/4 1520/6/4
f 1520/6/4 1519/6/4 1521/6/4
f 1522/6/4 1523/6/4 1524/6/4
f 1524/6/4 1523/6/4 1525/6/4
f 1526/5/4 1527/5/4 1528/5/4
f 1528/5/4 1527/5/4 1529/5/4
f 1529/5/4 1527/5/4 1531/5/4
f 1530/5/4 1531/5/4 1532/5/4
f 1531/5/4 1527/5/4 1533/5/4
f 1532/5/4 1531/5/4 1533/5/4
f 1534/5/4 1535/5/4 1536/5/4
f 1536/5/4 1535/5/4 1537/5/4
f 1538/5/4 1539/5/4 1540/5/4
f 1540/5/4 1539/5/4 1541/5/4
f 1541/5/4 1539/5/4 1543/5/4
f 1542/5/4 1543/5/4 1544/5/4
f 1543/5/4 1539/5/4 1545/5/4
f 1544/5/4 1543/5/4 1545/5/4
f 1546/5/4 1547/5/4 1548/5/4
f 1548/5/4 1547/5/4 1549/5/4
f 1550/5/4 1551/5/4 1552/5/4
f 1552/5/4 1551/5/4 1553/5/4
f 1554/5/4 1555/5/4 1556/5/4
f 1556/5/4 1555/5/4 1557/5/4
f 1560/5/5 1559/5/5 1558/5/5
f 1561/5/5 1559/5/5 1560/5/5
f 1562/5/5 1560/5/5 1558/5/5
f 1562/4/5 1561/4/5 1560/4/5
f 1563/5/5 1559/5/5 1561/5/5
f 1563/4/5 1561/4/5 1562/4/5
f 1564/5/5 1562/5/5 1558/5/5
f 1564/5/5 1563/5/5 1562/5/5
f 1565/5/5 1559/5/5 1563/5/5
f 1565/5/5 1563/5/5 1564/5/5
f 1566/5/5 1559/5/5 1565/5/5
f 1567/5/5 1559/5/5 1566/5/5
f 1568/6/5 1566/6/5 1565/6/5
f 1569/6/5 1566/6/5 1568/6/5
f 1571/6/5 1570/6/5 1569/6/5
f 1572/6/5 1570/6/5 1571/6/5
f 1574/6/5 1573/6/5 1572/6/5
f 1575/6/5 1573/6/5 1574/6/5
f 1576/6/5 1573/6/5 1575/6/5
f 1577/6/5 1573/6/5 1576/6/5
f 1580/5/5 1579/5/5 1578/5/5
f 1581/5/5 1579/5/5 1580/5/5
f 1584/6/5 1583/6/5 1582/6/5
f 1585/6/5 1583/6/5 1584/6/5
f 1586/3/5 1585/3/5 1584/3/5
f 1587/3/5 1585/3/5 1586/3/5
f 1590/5/5 1589/5/5 1588/5/5
f 1591/5/5 1589/5/5 1590/5/5
f 1594/5/5 1593/5/5 1592/5/5
f 1595/5/5 1593/5/5 1594/5/5
f 1598/5/5 1597/5/5 1596/5/5
f 1599/5/5 1597/5/5 1598/5/5
f 1602/5/5 1601/5/5 1600/5/5
f 1603/5/5 1601/5/5 1602/5/5
f 1604/5/5 1601/5/5 1603/5/5
f 1605/5/5 1601/5/5 1604/5/5
f 1606/5/5 1604/5/5 1603/5/5
f 1607/5/5 1604/5/5 1606/5/5
f 1608/5/5 1606/5/5 1603/5/5
f 1609/5/5 1604/5/5 1607/5/5
f 1610/5/5 1608/5/5 1603/5/5
f 1610/5/5 1609/5/5 1608/5/5
f 1611/5/5 1609/5/5 1610/5/5
f 1612/5/5 1604/5/5 1609/5/5
f 1612/5/5 1609/5/5 1611/5/5
f 1613/5/5 1604/5/5 1612/5/5
f 1614/5/5 1612/5/5 1611/5/5
f 1615/5/5 1612/5/5 1614/5/5
f 1618/5/5 1617/5/5 1616/5/5
f 1619/5/5 1617/5/5 1618/5/5
f 1620/6/6 1621/6/6 1622/6/6
f 1622/6/6 1621/6/6 1623/6/6
f 1623/6/6 1624/6/6 1625/6/6
f 1625/6/6 1624/6/6 1626/6/6
f 1626/6/6 1627/6/6 1628/6/6
f 1628/6/6 1627/6/6 1629/6/6
f 1629/6/6 1627/6/6 1630/6/6
f 1631/5/6 1632/5/6 1633/5/6
f 1633/5/6 1632/5/6 1634/5/6
f 1634/5/6 1632/5/6 1635/5/6
f 1635/5/6 1632/5/6 1636/5/6
f 1636/5/6 1632/5/6 1637/5/6
f 1637/5/6 1632/5/6 1638/5/6
f 1638/5/6 1632/5/6 1639/5/6
f 1639/5/6 1632/5/6 1640/5/6
f 1640/5/6 1632/5/6 1641/5/6
f 1641/5/6 1632/5/6 1642/5/6
f 1642/5/6 1632/5/6 1643/5/6
f 1643/5/6 1632/5/6 1644/5/6
f 1644/5/6 1632/5/6 1645/5/6
f 1645/5/6 1632/5/6 1646/5/6
f 1646/5/6 1632/5/6 1647/5/6
f 1647/5/6 1632/5/6 1648/5/6
f 1648/5/6 1632/5/6 1649/5/6
f 1649/5/6 1632/5/6 1650/5/6
f 1650/5/6 1632/5/6 1651/5/6
f 1651/5/6 1632/5/6 1652/5/6
f 1652/5/6 1632/5/6 1653/5/6
f 1653/5/6 1632/5/6 1654/5/6
f 1654/5/6 1632/5/6 1655/5/6
f 1655/5/6 1632/5/6 1656/5/6
f 1656/5/6 1632/5/6 1657/5/6
f 1657/5/6 1632/5/6 1658/5/6
f 1658/5/6 1632/5/6 1659/5/6
f 1659/5/6 1632/5/6 1660/5/6
f 1631/5/6 1633/5/6 1661/5/6
f 1634/5/6 1635/5/6 1662/5/6
f 1662/5/6 1635/5/6 1663/5/6
f 1636/5/6 1637/5/6 1664/5/6
f 1664/5/6 1637/5/6 1665/5/6
f 1638/5/6 1639/5/6 1666/5/6
f 1666/5/6 1639/5/6 1667/5/6
f 1640/5/6 1641/5/6 1668/5/6
f 1668/5/6 1641/5/6 1669/5/6
f 1642/5/6 1643/5/6 1670/5/6
f 1670/5/6 1643/5/6 1671/5/6
f 1644/5/6 1645/5/6 1672/5/6
f 1672/5/6 1645/5/6 1673/5/6
f 1646/5/6 1647/5/6 1674/5/6
f 1674/5/6 1647/5/6 1675/5/6
f 1648/5/6 1649/5/6 1676/5/6
f 1676/5/6 1649/5/6 1677/5/6
f 1650/5/6 1651/5/6 1678/5/6
f 1678/5/6 1651/5/6 1679/5/6
f 1652/5/6 1653/5/6 1680/5/6
f 1680/5/6 1653/5/6 1681/5/6
f 1654/5/6 1655/5/6 1682/5/6
f 1682/5/6 1655/5/6 1683/5/6
f 1656/5/6 1657/5/6 1684/5/6
f 1684/5/6 1657/5/6 1685/5/6
f 1658/5/6 1659/5/6 1686/5/6
f 1686/5/6 1659/5/6 1687/5/6
f 1660/5/6 1632/5/6 1688/5/6
f 1686/5/6 1687/5/6 1689/5/6
f 1687/5/6 1688/5/6 1689/5/6
f 1684/5/6 1685/5/6 1689/5/6
f 1631/5/6 1661/5/6 1689/5/6
f 1685/5/6 1686/5/6 1689/5/6
f 1682/5/6 1683/5/6 1689/5/6
f 1683/5/6 1684/5/6 1689/5/6
f 1662/5/6 1663/5/6 1689/5/6
f 1681/5/6 1682/5/6 1689/5/6
f 1680/5/6 1681/5/6 1689/5/6
f 1679/5/6 1680/5/6 1689/5/6
f 1664/5/6 1665/5/6 1689/5/6
f 1677/5/6 1678/5/6 1689/5/6
f 1678/5/6 1679/5/6 1689/5/6
f 1675/5/6 1676/5/6 1689/5/6
f 1666/5/6 1667/5/6 1689/5/6
f 1673/5/6 1674/5/6 1689/5/6
f 1676/5/6 1677/5/6 1689/5/6
f 1671/5/6 1672/5/6 1689/5/6
f 1668/5/6 1669/5/6 1689/5/6
f 1669/5/6 1670/5/6 1689/5/6
f 1674/5/6 1675/5/6 1689/5/6
f 1667/5/6 1668/5/6 1689/5/6
f 1670/5/6 1671/5/6 1689/5/6
f 1665/5/6 1666/5/6 1689/5/6
f 1672/5/6 1673/5/6 1689/5/6
f 1663/5/6 1664/5/6 1689/5/6
f 1661/5/6 1662/5/6 1689/5/6
f 1689/5/6 1688/5/6 1690/5/6
f 1690/5/6 1688/5/6 1691/5/6
f 1691/5/6 1688/5/6 1692/5/6
f 1692/5/6 1688/5/6 1693/5/6
f 1693/5/6 1688/5/6 1694/5/6
f 1694/5/6 1688/5/6 1695/5/6
f 1695/5/6 1688/5/6 1696/5/6
f 1696/5/6 1688/5/6 1697/5/6
f 1697/5/6 1688/5/6 1698/5/6
f 1698/5/6 1688/5/6 1699/5/6
f 1699/5/6 1688/5/6 1700/5/6
f 1700/5/6 1688/5/6 1701/5/6
f 1701/5/6 1688/5/6 1702/5/6
f 1702/5/6 1688/5/6 1703/5/6
f 1703/5/6 1688/5/6 1704/5/6
f 1704/5/6 1688/5/6 1705/5/6
f 1705/5/6 1688/5/6 1706/5/6
f 1706/5/6 1688/5/6 1707/5/6
f 1707/5/6 1688/5/6 1708/5/6
f 1708/5/6 1688/5/6 1709/5/6
f 1709/5/6 1688/5/6 1710/5/6
f 1710/5/6 1688/5/6 1711/5/6
f 1711/5/6 1688/5/6 1712/5/6
f 1712/5/6 1688/5/6 1713/5/6
f 1713/5/6 1688/5/6 1714/5/6
f 1714/5/6 1688/5/6 1715/5/6
f 1715/5/6 1688/5/6 1716/5/6
f 1716/5/6 1688/5/6 1717/5/6
f 1688/5/6 1632/5/6 1718/5/6
f 1717/5/6 1688/5/6 1718/5/6
f 1631/5/6 1689/5/6 1719/5/6
f 1690/5/6 1691/5/6 1720/5/6
f 1720/5/6 1691/5/6 1721/5/6
f 1692/5/6 1693/5/6 1722/5/6
f 1722/5/6 1693/5/6 1723/5/6
f 1694/5/6 1695/5/6 1724/5/6
f 1724/5/6 1695/5/6 1725/5/6
f 1696/5/6 1697/5/6 1726/5/6
f 1726/5/6 1697/5/6 1727/5/6
f 1698/5/6 1699/5/6 1728/5/6
f 1728/5/6 1699/5/6 1729/5/6
f 1700/5/6 1701/5/6 1730/5/6
f 1730/5/6 1701/5/6 1731/5/6
f 1702/5/6 1703/5/6 1732/5/6
f 1732/5/6 1703/5/6 1733/5/6
f 1704/5/6 1705/5/6 1734/5/6
f 1734/5/6 1705/5/6 1735/5/6
f 1706/5/6 1707/5/6 1736/5/6
f 1736/5/6 1707/5/6 1737/5/6
f 1708/5/6 1709/5/6 1738/5/6
f 1710/5/6 1711/5/6 1739/5/6
f 1739/5/6 1711/5/6 1740/5/6
f 1740/5/6 1711/5/6 1741/5/6
f 1712/5/6 1713/5/6 1742/5/6
f 1742/5/6 1713/5/6 1743/5/6
f 1714/5/6 1715/5/6 1744/5/6
f 1744/5/6 1715/5/6 1745/5/6
f 1716/5/6 1717/5/6 1746/5/6
f 1746/5/6 1717/5/6 1747/5/6
f 1718/5/6 1632/5/6 1748/5/6
f 1631/5/6 1719/5/6 1749/5/6
f 1720/5/6 1721/5/6 1749/5/6
f 1737/5/6 1738/5/6 1749/5/6
f 1722/5/6 1723/5/6 1749/5/6
f 1736/5/6 1737/5/6 1749/5/6
f 1724/5/6 1725/5/6 1749/5/6
f 1734/5/6 1735/5/6 1749/5/6
f 1726/5/6 1727/5/6 1749/5/6
f 1732/5/6 1733/5/6 1749/5/6
f 1728/5/6 1729/5/6 1749/5/6
f 1730/5/6 1731/5/6 1749/5/6
f 1719/5/6 1720/5/6 1749/5/6
f 1721/5/6 1722/5/6 1749/5/6
f 1735/5/6 1736/5/6 1749/5/6
f 1723/5/6 1724/5/6 1749/5/6
f 1733/5/6 1734/5/6 1749/5/6
f 1725/5/6 1726/5/6 1749/5/6
f 1731/5/6 1732/5/6 1749/5/6
f 1727/5/6 1728/5/6 1749/5/6
f 1729/5/6 1730/5/6 1749/5/6
f 1749/5/6 1738/5/6 1750/5/6
f 1750/5/6 1738/5/6 1751/5/6
f 1751/5/6 1738/5/6 1752/5/6
f 1752/5/6 1738/5/6 1753/5/6
f 1753/5/6 1738/5/6 1754/5/6
f 1754/5/6 1738/5/6 1755/5/6
f 1755/5/6 1738/5/6 1756/5/6
f 1756/5/6 1738/5/6 1757/5/6
f 1757/5/6 1738/5/6 1758/5/6
f 1758/5/6 1738/5/6 1759/5/6
f 1759/5/6 1738/5/6 1760/5/6
f 1760/5/6 1738/5/6 1761/5/6
f 1761/5/6 1738/5/6 1762/5/6
f 1762/5/6 1738/5/6 1763/5/6
f 1763/5/6 1738/5/6 1764/5/6
f 1764/5/6 1738/5/6 1765/5/6
f 1765/5/6 1738/5/6 1766/5/6
f 1766/5/6 1738/5/6 1767/5/6
f 1738/5/6 1709/5/6 1768/5/6
f 1767/5/6 1738/5/6 1768/5/6
f 1744/5/6 1745/5/6 1769/5/6
f 1746/5/6 1747/5/6 1769/5/6
f 1742/5/6 1743/5/6 1769/5/6
f 1747/5/6 1748/5/6 1769/5/6
f 1740/5/6 1741/5/6 1769/5/6
f 1745/5/6 1746/5/6 1769/5/6
f 1743/5/6 1744/5/6 1769/5/6
f 1741/5/6 1742/5/6 1769/5/6
f 1769/5/6 1748/5/6 1770/5/6
f 1770/5/6 1748/5/6 1771/5/6
f 1771/5/6 1748/5/6 1772/5/6
f 1772/5/6 1748/5/6 1773/5/6
f 1748/5/6 1632/5/6 1774/5/6
f 1773/5/6 1748/5/6 1774/5/6
f 1631/5/6 1749/5/6 1775/5/6
f 1750/5/6 1751/5/6 1776/5/6
f 1776/5/6 1751/5/6 1777/5/6
f 1752/5/6 1753/5/6 1778/5/6
f 1778/5/6 1753/5/6 1779/5/6
f 1754/5/6 1755/5/6 1780/5/6
f 1780/5/6 1755/5/6 1781/5/6
f 1756/5/6 1757/5/6 1782/5/6
f 1782/5/6 1757/5/6 1783/5/6
f 1758/5/6 1759/5/6 1784/5/6
f 1784/5/6 1759/5/6 1785/5/6
f 1760/5/6 1761/5/6 1786/5/6
f 1786/5/6 1761/5/6 1787/5/6
f 1762/5/6 1763/5/6 1788/5/6
f 1788/5/6 1763/5/6 1789/5/6
f 1764/5/6 1765/5/6 1790/5/6
f 1790/5/6 1765/5/6 1791/5/6
f 1766/5/6 1767/5/6 1792/5/6
f 1792/5/6 1767/5/6 1793/5/6
f 1768/5/6 1709/5/6 1794/5/6
f 1794/5/6 1709/5/6 1795/5/6
f 1740/5/6 1769/5/6 1796/5/6
f 1796/5/6 1769/5/6 1797/5/6
f 1770/5/6 1771/5/6 1798/5/6
f 1798/5/6 1771/5/6 1799/5/6
f 1772/5/6 1773/5/6 1800/5/6
f 1800/5/6 1773/5/6 1801/5/6
f 1774/5/6 1632/5/6 1802/5/6
f 1792/5/6 1793/5/6 1803/5/6
f 1801/5/6 1802/5/6 1803/5/6
f 1800/5/6 1801/5/6 1803/5/6
f 1796/5/6 1797/5/6 1803/5/6
f 1799/5/6 1800/5/6 1803/5/6
f 1788/5/6 1789/5/6 1803/5/6
f 1797/5/6 1798/5/6 1803/5/6
f 1794/5/6 1795/5/6 1803/5/6
f 1795/5/6 1796/5/6 1803/5/6
f 1798/5/6 1799/5/6 1803/5/6
f 1793/5/6 1794/5/6 1803/5/6
f 1786/5/6 1787/5/6 1803/5/6
f 1791/5/6 1792/5/6 1803/5/6
f 1782/5/6 1783/5/6 1803/5/6
f 1789/5/6 1790/5/6 1803/5/6
f 1784/5/6 1785/5/6 1803/5/6
f 1787/5/6 1788/5/6 1803/5/6
f 1790/5/6 1791/5/6 1803/5/6
f 1785/5/6 1786/5/6 1803/5/6
f 1780/5/6 1781/5/6 1803/5/6
f 1783/5/6 1784/5/6 1803/5/6
f 1778/5/6 1779/5/6 1803/5/6
f 1781/5/6 1782/5/6 1803/5/6
f 1631/5/6 1775/5/6 1803/5/6
f 1779/5/6 1780/5/6 1803/5/6
f 1776/5/6 1777/5/6 1803/5/6
f 1777/5/6 1778/5/6 1803/5/6
f 1775/5/6 1776/5/6 1803/5/6
f 1803/5/6 1802/5/6 1804/5/6
f 1804/5/6 1802/5/6 1805/5/6
f 1805/5/6 1802/5/6 1806/5/6
f 1806/5/6 1802/5/6 1807/5/6
f 1807/5/6 1802/5/6 1808/5/6
f 1808/5/6 1802/5/6 1809/5/6
f 1809/5/6 1802/5/6 1810/5/6
f 1810/5/6 1802/5/6 1811/5/6
f 1811/5/6 1802/5/6 1812/5/6
f 1812/5/6 1802/5/6 1813/5/6
f 1813/5/6 1802/5/6 1814/5/6
f 1814/5/6 1802/5/6 1815/5/6
f 1815/5/6 1802/5/6 1816/5/6
f 1816/5/6 1802/5/6 1817/5/6
f 1817/5/6 1802/5/6 1818/5/6
f 1818/5/6 1802/5/6 1819/5/6
f 1819/5/6 1802/5/6 1820/5/6
f 1820/5/6 1802/5/6 1821/5/6
f 1821/5/6 1802/5/6 1822/5/6
f 1822/5/6 1802/5/6 1823/5/6
f 1823/5/6 1802/5/6 1824/5/6
f 1824/5/6 1802/5/6 1825/5/6
f 1825/5/6 1802/5/6 1826/5/6
f 1826/5/6 1802/5/6 1827/5/6
f 1827/5/6 1802/5/6 1828/5/6
f 1828/5/6 1802/5/6 1829/5/6
f 1802/5/6 1632/5/6 1830/5/6
f 1829/5/6 1802/5/6 1830/5/6
f 1631/5/6 1803/5/6 1831/5/6
f 1804/5/6 1805/5/6 1832/5/6
f 1832/5/6 1805/5/6 1833/5/6
f 1806/5/6 1807/5/6 1834/5/6
f 1834/5/6 1807/5/6 1835/5/6
f 1808/5/6 1809/5/6 1836/5/6
f 1836/5/6 1809/5/6 1837/5/6
f 1810/5/6 1811/5/6 1838/5/6
f 1838/5/6 1811/5/6 1839/5/6
f 1812/5/6 1813/5/6 1840/5/6
f 1840/5/6 1813/5/6 1841/5/6
f 1814/5/6 1815/5/6 1842/5/6
f 1842/5/6 1815/5/6 1843/5/6
f 1816/5/6 1817/5/6 1844/5/6
f 1844/5/6 1817/5/6 1845/5/6
f 1818/5/6 1819/5/6 1846/5/6
f 1846/5/6 1819/5/6 1847/5/6
f 1820/5/6 1821/5/6 1848/5/6
f 1848/5/6 1821/5/6 1849/5/6
f 1822/5/6 1823/5/6 1850/5/6
f 1850/5/6 1823/5/6 1851/5/6
f 1824/5/6 1825/5/6 1852/5/6
f 1852/5/6 1825/5/6 1853/5/6
f 1853/5/6 1825/5/6 1854/5/6
f 1854/5/6 1825/5/6 1855/5/6
f 1855/5/6 1825/5/6 1856/5/6
f 1856/5/6 1825/5/6 1857/5/6
f 1857/5/6 1825/5/6 1858/5/6
f 1858/5/6 1825/5/6 1859/5/6
f 1826/5/6 1827/5/6 1860/5/6
f 1860/5/6 1827/5/6 1861/5/6
f 1828/5/6 1829/5/6 1862/5/6
f 1862/5/6 1829/5/6 1863/5/6
f 1830/5/6 1632/5/6 1864/5/6
f 1850/5/6 1851/5/6 1865/5/6
f 1832/5/6 1833/5/6 1865/5/6
f 1848/5/6 1849/5/6 1865/5/6
f 1834/5/6 1835/5/6 1865/5/6
f 1846/5/6 1847/5/6 1865/5/6
f 1836/5/6 1837/5/6 1865/5/6
f 1844/5/6 1845/5/6 1865/5/6
f 1838/5/6 1839/5/6 1865/5/6
f 1842/5/6 1843/5/6 1865/5/6
f 1840/5/6 1841/5/6 1865/5/6
f 1852/5/6 1853/5/6 1865/5/6
f 1851/5/6 1852/5/6 1865/5/6
f 1831/5/6 1832/5/6 1865/5/6
f 1849/5/6 1850/5/6 1865/5/6
f 1833/5/6 1834/5/6 1865/5/6
f 1847/5/6 1848/5/6 1865/5/6
f 1835/5/6 1836/5/6 1865/5/6
f 1845/5/6 1846/5/6 1865/5/6
f 1837/5/6 1838/5/6 1865/5/6
f 1843/5/6 1844/5/6 1865/5/6
f 1839/5/6 1840/5/6 1865/5/6
f 1841/5/6 1842/5/6 1865/5/6
f 1854/5/6 1855/5/6 1866/5/6
f 1866/5/6 1855/5/6 1867/5/6
f 1856/5/6 1857/5/6 1868/5/6
f 1868/5/6 1857/5/6 1869/5/6
f 1860/5/6 1861/5/6 1870/5/6
f 1862/5/6 1863/5/6 1870/5/6
f 1858/5/6 1859/5/6 1870/5/6
f 1863/5/6 1864/5/6 1870/5/6
f 1861/5/6 1862/5/6 1870/5/6
f 1859/5/6 1860/5/6 1870/5/6
f 1868/5/6 1869/5/6 1871/5/6
f 1869/5/6 1870/5/6 1871/5/6
f 1867/5/6 1868/5/6 1871/5/6
f 1631/5/6 1831/5/6 1871/5/6
f 1865/5/6 1866/5/6 1871/5/6
f 1866/5/6 1867/5/6 1871/5/6
f 1831/5/6 1865/5/6 1871/5/6
f 1871/5/6 1870/5/6 1872/5/6
f 1872/5/6 1870/5/6 1873/5/6
f 1873/5/6 1870/5/6 1874/5/6
f 1874/5/6 1870/5/6 1875/5/6
f 1875/5/6 1870/5/6 1876/5/6
f 1876/5/6 1870/5/6 1877/5/6
f 1877/5/6 1870/5/6 1878/5/6
f 1878/5/6 1870/5/6 1879/5/6
f 1879/5/6 1870/5/6 1880/5/6
f 1880/5/6 1870/5/6 1881/5/6
f 1881/5/6 1870/5/6 1882/5/6
f 1882/5/6 1870/5/6 1883/5/6
f 1883/5/6 1870/5/6 1884/5/6
f 1884/5/6 1870/5/6 1885/5/6
f 1885/5/6 1870/5/6 1886/5/6
f 1886/5/6 1870/5/6 1887/5/6
f 1887/5/6 1870/5/6 1888/5/6
f 1888/5/6 1870/5/6 1889/5/6
f 1889/5/6 1870/5/6 1890/5/6
f 1890/5/6 1870/5/6 1891/5/6
f 1891/5/6 1870/5/6 1892/5/6
f 1892/5/6 1870/5/6 1893/5/6
f 1893/5/6 1870/5/6 1894/5/6
f 1894/5/6 1870/5/6 1895/5/6
f 1895/5/6 1870/5/6 1896/5/6
f 1896/5/6 1870/5/6 1897/5/6
f 1870/5/6 1864/5/6 1898/5/6
f 1897/5/6 1870/5/6 1898/5/6
f 1631/5/6 1871/5/6 1899/5/6
f 1872/5/6 1873/5/6 1900/5/6
f 1900/5/6 1873/5/6 1901/5/6
f 1874/5/6 1875/5/6 1902/5/6
f 1902/5/6 1875/5/6 1903/5/6
f 1876/5/6 1877/5/6 1904/5/6
f 1904/5/6 1877/5/6 1905/5/6
f 1878/5/6 1879/5/6 1906/5/6
f 1906/5/6 1879/5/6 1907/5/6
f 1880/5/6 1881/5/6 1908/5/6
f 1908/5/6 1881/5/6 1909/5/6
f 1882/5/6 1883/5/6 1910/5/6
f 1910/5/6 1883/5/6 1911/5/6
f 1884/5/6 1885/5/6 1912/5/6
f 1912/5/6 1885/5/6 1913/5/6
f 1886/5/6 1887/5/6 1914/5/6
f 1914/5/6 1887/5/6 1915/5/6
f 1888/5/6 1889/5/6 1916/5/6
f 1916/5/6 1889/5/6 1917/5/6
f 1890/5/6 1891/5/6 1918/5/6
f 1918/5/6 1891/5/6 1919/5/6
f 1892/5/6 1893/5/6 1920/5/6
f 1920/5/6 1893/5/6 1921/5/6
f 1894/5/6 1895/5/6 1922/5/6
f 1922/5/6 1895/5/6 1923/5/6
f 1896/5/6 1897/5/6 1924/5/6
f 1924/5/6 1897/5/6 1925/5/6
f 1898/5/6 1864/5/6 1926/5/6
f 1922/5/6 1923/5/6 1927/5/6
f 1925/5/6 1926/5/6 1927/5/6
f 1924/5/6 1925/5/6 1927/5/6
f 1920/5/6 1921/5/6 1927/5/6
f 1923/5/6 1924/5/6 1927/5/6
f 1631/5/6 1899/5/6 1927/5/6
f 1921/5/6 1922/5/6 1927/5/6
f 1918/5/6 1919/5/6 1927/5/6
f 1919/5/6 1920/5/6 1927/5/6
f 1900/5/6 1901/5/6 1927/5/6
f 1917/5/6 1918/5/6 1927/5/6
f 1916/5/6 1917/5/6 1927/5/6
f 1915/5/6 1916/5/6 1927/5/6
f 1902/5/6 1903/5/6 1927/5/6
f 1913/5/6 1914/5/6 1927/5/6
f 1914/5/6 1915/5/6 1927/5/6
f 1911/5/6 1912/5/6 1927/5/6
f 1904/5/6 1905/5/6 1927/5/6
f 1909/5/6 1910/5/6 1927/5/6
f 1912/5/6 1913/5/6 1927/5/6
f 1907/5/6 1908/5/6 1927/5/6
f 1906/5/6 1907/5/6 1927/5/6
f 1905/5/6 1906/5/6 1927/5/6
f 1910/5/6 1911/5/6 1927/5/6
f 1903/5/6 1904/5/6 1927/5/6
f 1908/5/6 1909/5/6 1927/5/6
f 1901/5/6 1902/5/6 1927/5/6
f 1899/5/6 1900/5/6 1927/5/6
f 1926/5/6 1864/5/6 1928/5/6
f 1927/5/6 1926/5/6 1928/5/6
f 1864/5/6 1632/5/6 1928/5/6
f 1929/5/6 1930/5/6 1931/5/6
f 1931/5/6 1930/5/6 1932/5/6
f 1933/6/6 1934/6/6 1935/6/6
f 1935/6/6 1934/6/6 1936/6/6
f 1937/4/6 1938/4/6 1965/4/6
f 1965/4/6 1938/4/6 1966/4/6
f 1939/4/6 1940/4/6 1967/4/6
f 1967/4/6 1940/4/6 1968/4/6
f 1941/4/6 1942/4/6 1969/4/6
f 1969/4/6 1942/4/6 1970/4/6
f 1943/4/6 1944/4/6 1971/4/6
f 1971/4/6 1944/4/6 1972/4/6
f 1945/4/6 1946/4/6 1973/4/6
f 1973/4/6 1946/4/6 1974/4/6
f 1947/4/6 1948/4/6 1975/4/6
f 1975/4/6 1948/4/6 1976/4/6
f 1949/4/6 1950/4/6 1977/4/6
f 1977/4/6 1950/4/6 1978/4/6
f 1951/4/6 1952/4/6 1979/4/6
f 1979/4/6 1952/4/6 1980/4/6
f 1953/4/6 1954/4/6 1981/4/6
f 1981/4/6 1954/4/6 1982/4/6
f 1955/4/6 1956/4/6 1983/4/6
f 1983/4/6 1956/4/6 1984/4/6
f 1957/4/6 1958/4/6 1985/4/6
f 1985/4/6 1958/4/6 1986/4/6
f 1959/4/6 1960/4/6 1987/4/6
f 1987/4/6 1960/4/6 1988/4/6
f 1961/4/6 1962/4/6 1989/4/6
f 1989/4/6 1962/4/6 1990/4/6
f 1963/4/6 1964/4/6 1991/4/6
f 1991/4/6 1964/4/6 1992/4/6
f 1993/4/6 1994/4/6 2023/4/6
f 2023/4/6 1994/4/6 2024/4/6
f 1995/4/6 1996/4/6 2025/4/6
f 2025/4/6 1996/4/6 2026/4/6
f 1997/4/6 1998/4/6 2027/4/6
f 2027/4/6 1998/4/6 2028/4/6
f 1999/4/6 2000/4/6 2029/4/6
f 2029/4/6 2000/4/6 2030/4/6
f 2001/4/6 2002/4/6 2031/4/6
f 2031/4/6 2002/4/6 2032/4/6
f 2003/4/6 2004/4/6 2033/4/6
f 2033/4/6 2004/4/6 2034/4/6
f 2005/4/6 2006/4/6 2035/4/6
f 2035/4/6 2006/4/6 2036/4/6
f 2007/4/6 2008/4/6 2037/4/6
f 2037/4/6 2008/4/6 2038/4/6
f 2009/4/6 2010/4/6 2039/4/6
f 2039/4/6 2010/4/6 2040/4/6
f 2011/4/6 2012/4/6 2041/4/6
f 2041/4/6 2012/4/6 2042/4/6
f 2013/4/6 2014/4/6 2043/4/6
f 2015/4/6 2016/4/6 2045/4/6
f 2045/4/6 2016/4/6 2046/4/6
f 2017/4/6 2018/4/6 2047/4/6
f 2047/4/6 2018/4/6 2048/4/6
f 2019/4/6 2020/4/6 2049/4/6
f 2049/4/6 2020/4/6 2050/4/6
f 2021/4/6 2022/4/6 2051/4/6
f 2051/4/6 2022/4/6 2052/4/6
f 2053/4/6 2054/4/6 2079/4/6
f 2079/4/6 2054/4/6 2080/4/6
f 2055/4/6 2056/4/6 2081/4/6
f 2081/4/6 2056/4/6 2082/4/6
f 2057/4/6 2058/4/6 2083/4/6
f 2083/4/6 2058/4/6 2084/4/6
f 2059/4/6 2060/4/6 2085/4/6
f 2085/4/6 2060/4/6 2086/4/6
f 2061/4/6 2062/4/6 2087/4/6
f 2087/4/6 2062/4/6 2088/4/6
f 2063/4/6 2064/4/6 2089/4/6
f 2089/4/6 2064/4/6 2090/4/6
f 2065/4/6 2066/4/6 2091/4/6
f 2091/4/6 2066/4/6 2092/4/6
f 2067/4/6 2068/4/6 2093/4/6
f 2093/4/6 2068/4/6 2094/4/6
f 2069/4/6 2070/4/6 2095/4/6
f 2095/4/6 2070/4/6 2096/4/6
f 2071/4/6 2072/4/6 2097/4/6
f 2097/4/6 2072/4/6 2098/4/6
f 2013/4/6 2043/4/6 2099/4/6
f 2043/4/6 2044/4/6 2099/4/6
f 2099/4/6 2044/4/6 2100/4/6
f 2073/4/6 2074/4/6 2101/4/6
f 2101/4/6 2074/4/6 2102/4/6
f 2075/4/6 2076/4/6 2103/4/6
f 2103/4/6 2076/4/6 2104/4/6
f 2077/4/6 2078/4/6 2105/4/6
f 2105/4/6 2078/4/6 2106/4/6
f 2107/4/6 2108/4/6 2135/4/6
f 2135/4/6 2108/4/6 2136/4/6
f 2109/4/6 2110/4/6 2137/4/6
f 2137/4/6 2110/4/6 2138/4/6
f 2111/4/6 2112/4/6 2139/4/6
f 2139/4/6 2112/4/6 2140/4/6
f 2113/4/6 2114/4/6 2141/4/6
f 2141/4/6 2114/4/6 2142/4/6
f 2115/4/6 2116/4/6 2143/4/6
f 2143/4/6 2116/4/6 2144/4/6
f 2117/4/6 2118/4/6 2145/4/6
f 2145/4/6 2118/4/6 2146/4/6
f 2119/4/6 2120/4/6 2147/4/6
f 2147/4/6 2120/4/6 2148/4/6
f 2121/4/6 2122/4/6 2149/4/6
f 2149/4/6 2122/4/6 2150/4/6
f 2123/4/6 2124/4/6 2151/4/6
f 2151/4/6 2124/4/6 2152/4/6
f 2125/4/6 2126/4/6 2153/4/6
f 2153/4/6 2126/4/6 2154/4/6
f 2127/4/6 2128/4/6 2155/4/6
f 2155/4/6 2128/4/6 2156/4/6
f 2129/4/6 2130/4/6 2163/4/6
f 2163/4/6 2130/4/6 2164/4/6
f 2131/4/6 2132/4/6 2165/4/6
f 2165/4/6 2132/4/6 2166/4/6
f 2133/4/6 2134/4/6 2167/4/6
f 2167/4/6 2134/4/6 2168/4/6
f 2157/4/6 2158/4/6 2169/4/6
f 2169/4/6 2158/4/6 2170/4/6
f 2159/4/6 2160/4/6 2171/4/6
f 2171/4/6 2160/4/6 2172/4/6
f 2161/4/6 2162/4/6 2173/4/6
f 2173/4/6 2162/4/6 2174/4/6
f 2175/4/6 2176/4/6 2203/4/6
f 2203/4/6 2176/4/6 2204/4/6
f 2177/4/6 2178/4/6 2205/4/6
f 2205/4/6 2178/4/6 2206/4/6
f 2179/4/6 2180/4/6 2207/4/6
f 2207/4/6 2180/4/6 2208/4/6
f 2181/4/6 2182/4/6 2209/4/6
f 2209/4/6 2182/4/6 2210/4/6
f 2183/4/6 2184/4/6 2211/4/6
f 2211/4/6 2184/4/6 2212/4/6
f 2185/4/6 2186/4/6 2213/4/6
f 2213/4/6 2186/4/6 2214/4/6
f 2187/4/6 2188/4/6 2215/4/6
f 2215/4/6 2188/4/6 2216/4/6
f 2189/4/6 2190/4/6 2217/4/6
f 2217/4/6 2190/4/6 2218/4/6
f 2191/4/6 2192/4/6 2219/4/6
f 2219/4/6 2192/4/6 2220/4/6
f 2193/4/6 2194/4/6 2221/4/6
f 2221/4/6 2194/4/6 2222/4/6
f 2195/4/6 2196/4/6 2223/4/6
f 2223/4/6 2196/4/6 2224/4/6
f 2197/4/6 2198/4/6 2225/4/6
f 2225/4/6 2198/4/6 2226/4/6
f 2199/4/6 2200/4/6 2227/4/6
f 2227/4/6 2200/4/6 2228/4/6
f 2201/4/6 2202/4/6 2229/4/6
f 2229/4/6 2202/4/6 2230/4/6
f 2231/6/6 2232/6/6 2233/6/6
f 2233/6/6 2232/6/6 2234/6/6
f 2233/3/6 2234/3/6 2235/3/6
f 2235/3/6 2234/3/6 2236/3/6
f 2237/5/6 2238/5/6 2239/5/6
f 2239/5/6 2238/5/6 2240/5/6
f 2241/5/6 2242/5/6 2243/5/6
f 2243/5/6 2242/5/6 2244/5/6
f 2245/5/6 2246/5/6 2247/5/6
f 2247/5/6 2246/5/6 2248/5/6
f 2245/5/6 2247/5/6 2249/5/6
f 2248/5/6 2246/5/6 2250/5/6
f 2245/5/6 2249/5/6 2251/5/6
f 2249/5/6 2250/5/6 2251/5/6
f 2250/5/6 2246/5/6 2252/5/6
f 2251/5/6 2250/5/6 2252/5/6
f 2253/5/6 2254/5/6 2255/5/6
f 2255/5/6 2254/5/6 2256/5/6
f 2253/5/6 2255/5/6 2257/5/6
f 2256/5/6 2254/5/6 2258/5/6
f 2253/5/6 2257/5/6 2259/5/6
f 2257/5/6 2258/5/6 2259/5/6
f 2258/5/6 2254/5/6 2260/5/6
f 2259/5/6 2258/5/6 2260/5/6
f 2261/5/6 2262/5/6 2263/5/6
f 2263/5/6 2262/5/6 2264/5/6
f 2265/5/6 2266/5/6 2267/5/6
f 2267/5/6 2266/5/6 2268/5/6
f 2269/5/6 2270/5/6 2271/5/6
f 2271/5/6 2270/5/6 2272/5/6
f 2273/5/6 2274/5/6 2275/5/6
f 2275/5/6 2274/5/6 2276/5/6
